simulation/qsim/CPU.msim.vcd
$comment
	File created using the following command:
		vcd file CPU.msim.vcd -direction
$end
$date
	Sat Sep 17 18:56:29 2022
$end
$version
	ModelSim Version 10.5b
$end
$timescale
	1ps
$end

$scope module testeBUS_vlg_vec_tst $end
$var reg 2 ! A [0:1] $end
$var wire 1 " B $end

$scope module i1 $end
$var wire 1 # gnd $end
$var wire 1 $ vcc $end
$var wire 1 % unknown $end
$var tri1 1 & devclrn $end
$var tri1 1 ' devpor $end
$var tri1 1 ( devoe $end
$var wire 1 ) B~output_o $end
$var wire 1 * A[0]~input_o $end
$var wire 1 + A[1]~input_o $end
$var wire 1 , inst~combout $end
$upscope $end
$upscope $end
$enddefinitions $end
#0
$dumpvars
b0 !
0"
0#
1$
x%
1&
1'
1(
0)
0*
0+
0,
$end
#500
b1 !
b11 !
1+
1*
1,
1)
1"
#1000
b10 !
b0 !
0+
0*
0,
0)
0"
#1500
b1 !
b11 !
1+
1*
1,
1)
1"
#2000
b10 !
b0 !
0+
0*
0,
0)
0"
#2500
b1 !
b11 !
1+
1*
1,
1)
1"
#3000
b10 !
b0 !
0+
0*
0,
0)
0"
#3500
b1 !
b11 !
1+
1*
1,
1)
1"
#4000
b10 !
b0 !
0+
0*
0,
0)
0"
#4500
b1 !
b11 !
1+
1*
1,
1)
1"
#5000
b10 !
b0 !
0+
0*
0,
0)
0"
#5500
b1 !
b11 !
1+
1*
1,
1)
1"
#6000
b10 !
b0 !
0+
0*
0,
0)
0"
#6500
b1 !
b11 !
1+
1*
1,
1)
1"
#7000
b10 !
b0 !
0+
0*
0,
0)
0"
#7500
b1 !
b11 !
1+
1*
1,
1)
1"
#8000
b10 !
b0 !
0+
0*
0,
0)
0"
#8500
b1 !
b11 !
1+
1*
1,
1)
1"
#9000
b10 !
b0 !
0+
0*
0,
0)
0"
#9500
b1 !
b11 !
1+
1*
1,
1)
1"
#10000
b10 !
b0 !
0+
0*
0,
0)
0"
#10500
b1 !
b11 !
1+
1*
1,
1)
1"
#11000
b10 !
b0 !
0+
0*
0,
0)
0"
#11500
b1 !
b11 !
1+
1*
1,
1)
1"
#12000
b10 !
b0 !
0+
0*
0,
0)
0"
#12500
b1 !
b11 !
1+
1*
1,
1)
1"
#13000
b10 !
b0 !
0+
0*
0,
0)
0"
#13500
b1 !
b11 !
1+
1*
1,
1)
1"
#14000
b10 !
b0 !
0+
0*
0,
0)
0"
#14500
b1 !
b11 !
1+
1*
1,
1)
1"
#15000
b10 !
b0 !
0+
0*
0,
0)
0"
#15500
b1 !
b11 !
1+
1*
1,
1)
1"
#16000
b10 !
b0 !
0+
0*
0,
0)
0"
#16500
b1 !
b11 !
1+
1*
1,
1)
1"
#17000
b10 !
b0 !
0+
0*
0,
0)
0"
#17500
b1 !
b11 !
1+
1*
1,
1)
1"
#18000
b10 !
b0 !
0+
0*
0,
0)
0"
#18500
b1 !
b11 !
1+
1*
1,
1)
1"
#19000
b10 !
b0 !
0+
0*
0,
0)
0"
#19500
b1 !
b11 !
1+
1*
1,
1)
1"
#20000
b10 !
b0 !
0+
0*
0,
0)
0"
#20500
b1 !
b11 !
1+
1*
1,
1)
1"
#21000
b10 !
b0 !
0+
0*
0,
0)
0"
#21500
b1 !
b11 !
1+
1*
1,
1)
1"
#22000
b10 !
b0 !
0+
0*
0,
0)
0"
#22500
b1 !
b11 !
1+
1*
1,
1)
1"
#23000
b10 !
b0 !
0+
0*
0,
0)
0"
#23500
b1 !
b11 !
1+
1*
1,
1)
1"
#24000
b10 !
b0 !
0+
0*
0,
0)
0"
#24500
b1 !
b11 !
1+
1*
1,
1)
1"
#25000
b10 !
b0 !
0+
0*
0,
0)
0"
#25500
b1 !
b11 !
1+
1*
1,
1)
1"
#26000
b10 !
b0 !
0+
0*
0,
0)
0"
#26500
b1 !
b11 !
1+
1*
1,
1)
1"
#27000
b10 !
b0 !
0+
0*
0,
0)
0"
#27500
b1 !
b11 !
1+
1*
1,
1)
1"
#28000
b10 !
b0 !
0+
0*
0,
0)
0"
#28500
b1 !
b11 !
1+
1*
1,
1)
1"
#29000
b10 !
b0 !
0+
0*
0,
0)
0"
#29500
b1 !
b11 !
1+
1*
1,
1)
1"
#30000
b10 !
b0 !
0+
0*
0,
0)
0"
#30500
b1 !
b11 !
1+
1*
1,
1)
1"
#31000
b10 !
b0 !
0+
0*
0,
0)
0"
#31500
b1 !
b11 !
1+
1*
1,
1)
1"
#32000
b10 !
b0 !
0+
0*
0,
0)
0"
#32500
b1 !
b11 !
1+
1*
1,
1)
1"
#33000
b10 !
b0 !
0+
0*
0,
0)
0"
#33500
b1 !
b11 !
1+
1*
1,
1)
1"
#34000
b10 !
b0 !
0+
0*
0,
0)
0"
#34500
b1 !
b11 !
1+
1*
1,
1)
1"
#35000
b10 !
b0 !
0+
0*
0,
0)
0"
#35500
b1 !
b11 !
1+
1*
1,
1)
1"
#36000
b10 !
b0 !
0+
0*
0,
0)
0"
#36500
b1 !
b11 !
1+
1*
1,
1)
1"
#37000
b10 !
b0 !
0+
0*
0,
0)
0"
#37500
b1 !
b11 !
1+
1*
1,
1)
1"
#38000
b10 !
b0 !
0+
0*
0,
0)
0"
#38500
b1 !
b11 !
1+
1*
1,
1)
1"
#39000
b10 !
b0 !
0+
0*
0,
0)
0"
#39500
b1 !
b11 !
1+
1*
1,
1)
1"
#40000
b10 !
b0 !
0+
0*
0,
0)
0"
#40500
b1 !
b11 !
1+
1*
1,
1)
1"
#41000
b10 !
b0 !
0+
0*
0,
0)
0"
#41500
b1 !
b11 !
1+
1*
1,
1)
1"
#42000
b10 !
b0 !
0+
0*
0,
0)
0"
#42500
b1 !
b11 !
1+
1*
1,
1)
1"
#43000
b10 !
b0 !
0+
0*
0,
0)
0"
#43500
b1 !
b11 !
1+
1*
1,
1)
1"
#44000
b10 !
b0 !
0+
0*
0,
0)
0"
#44500
b1 !
b11 !
1+
1*
1,
1)
1"
#45000
b10 !
b0 !
0+
0*
0,
0)
0"
#45500
b1 !
b11 !
1+
1*
1,
1)
1"
#46000
b10 !
b0 !
0+
0*
0,
0)
0"
#46500
b1 !
b11 !
1+
1*
1,
1)
1"
#47000
b10 !
b0 !
0+
0*
0,
0)
0"
#47500
b1 !
b11 !
1+
1*
1,
1)
1"
#48000
b10 !
b0 !
0+
0*
0,
0)
0"
#48500
b1 !
b11 !
1+
1*
1,
1)
1"
#49000
b10 !
b0 !
0+
0*
0,
0)
0"
#49500
b1 !
b11 !
1+
1*
1,
1)
1"
#50000
b10 !
b0 !
0+
0*
0,
0)
0"
#50500
b1 !
b11 !
1+
1*
1,
1)
1"
#51000
b10 !
b0 !
0+
0*
0,
0)
0"
#51500
b1 !
b11 !
1+
1*
1,
1)
1"
#52000
b10 !
b0 !
0+
0*
0,
0)
0"
#52500
b1 !
b11 !
1+
1*
1,
1)
1"
#53000
b10 !
b0 !
0+
0*
0,
0)
0"
#53500
b1 !
b11 !
1+
1*
1,
1)
1"
#54000
b10 !
b0 !
0+
0*
0,
0)
0"
#54500
b1 !
b11 !
1+
1*
1,
1)
1"
#55000
b10 !
b0 !
0+
0*
0,
0)
0"
#55500
b1 !
b11 !
1+
1*
1,
1)
1"
#56000
b10 !
b0 !
0+
0*
0,
0)
0"
#56500
b1 !
b11 !
1+
1*
1,
1)
1"
#57000
b10 !
b0 !
0+
0*
0,
0)
0"
#57500
b1 !
b11 !
1+
1*
1,
1)
1"
#58000
b10 !
b0 !
0+
0*
0,
0)
0"
#58500
b1 !
b11 !
1+
1*
1,
1)
1"
#59000
b10 !
b0 !
0+
0*
0,
0)
0"
#59500
b1 !
b11 !
1+
1*
1,
1)
1"
#60000
b10 !
b0 !
0+
0*
0,
0)
0"
#60500
b1 !
b11 !
1+
1*
1,
1)
1"
#61000
b10 !
b0 !
0+
0*
0,
0)
0"
#61500
b1 !
b11 !
1+
1*
1,
1)
1"
#62000
b10 !
b0 !
0+
0*
0,
0)
0"
#62500
b1 !
b11 !
1+
1*
1,
1)
1"
#63000
b10 !
b0 !
0+
0*
0,
0)
0"
#63500
b1 !
b11 !
1+
1*
1,
1)
1"
#64000
b10 !
b0 !
0+
0*
0,
0)
0"
#64500
b1 !
b11 !
1+
1*
1,
1)
1"
#65000
b10 !
b0 !
0+
0*
0,
0)
0"
#65500
b1 !
b11 !
1+
1*
1,
1)
1"
#66000
b10 !
b0 !
0+
0*
0,
0)
0"
#66500
b1 !
b11 !
1+
1*
1,
1)
1"
#67000
b10 !
b0 !
0+
0*
0,
0)
0"
#67500
b1 !
b11 !
1+
1*
1,
1)
1"
#68000
b10 !
b0 !
0+
0*
0,
0)
0"
#68500
b1 !
b11 !
1+
1*
1,
1)
1"
#69000
b10 !
b0 !
0+
0*
0,
0)
0"
#69500
b1 !
b11 !
1+
1*
1,
1)
1"
#70000
b10 !
b0 !
0+
0*
0,
0)
0"
#70500
b1 !
b11 !
1+
1*
1,
1)
1"
#71000
b10 !
b0 !
0+
0*
0,
0)
0"
#71500
b1 !
b11 !
1+
1*
1,
1)
1"
#72000
b10 !
b0 !
0+
0*
0,
0)
0"
#72500
b1 !
b11 !
1+
1*
1,
1)
1"
#73000
b10 !
b0 !
0+
0*
0,
0)
0"
#73500
b1 !
b11 !
1+
1*
1,
1)
1"
#74000
b10 !
b0 !
0+
0*
0,
0)
0"
#74500
b1 !
b11 !
1+
1*
1,
1)
1"
#75000
b10 !
b0 !
0+
0*
0,
0)
0"
#75500
b1 !
b11 !
1+
1*
1,
1)
1"
#76000
b10 !
b0 !
0+
0*
0,
0)
0"
#76500
b1 !
b11 !
1+
1*
1,
1)
1"
#77000
b10 !
b0 !
0+
0*
0,
0)
0"
#77500
b1 !
b11 !
1+
1*
1,
1)
1"
#78000
b10 !
b0 !
0+
0*
0,
0)
0"
#78500
b1 !
b11 !
1+
1*
1,
1)
1"
#79000
b10 !
b0 !
0+
0*
0,
0)
0"
#79500
b1 !
b11 !
1+
1*
1,
1)
1"
#80000
b10 !
b0 !
0+
0*
0,
0)
0"
#80500
b1 !
b11 !
1+
1*
1,
1)
1"
#81000
b10 !
b0 !
0+
0*
0,
0)
0"
#81500
b1 !
b11 !
1+
1*
1,
1)
1"
#82000
b10 !
b0 !
0+
0*
0,
0)
0"
#82500
b1 !
b11 !
1+
1*
1,
1)
1"
#83000
b10 !
b0 !
0+
0*
0,
0)
0"
#83500
b1 !
b11 !
1+
1*
1,
1)
1"
#84000
b10 !
b0 !
0+
0*
0,
0)
0"
#84500
b1 !
b11 !
1+
1*
1,
1)
1"
#85000
b10 !
b0 !
0+
0*
0,
0)
0"
#85500
b1 !
b11 !
1+
1*
1,
1)
1"
#86000
b10 !
b0 !
0+
0*
0,
0)
0"
#86500
b1 !
b11 !
1+
1*
1,
1)
1"
#87000
b10 !
b0 !
0+
0*
0,
0)
0"
#87500
b1 !
b11 !
1+
1*
1,
1)
1"
#88000
b10 !
b0 !
0+
0*
0,
0)
0"
#88500
b1 !
b11 !
1+
1*
1,
1)
1"
#89000
b10 !
b0 !
0+
0*
0,
0)
0"
#89500
b1 !
b11 !
1+
1*
1,
1)
1"
#90000
b10 !
b0 !
0+
0*
0,
0)
0"
#90500
b1 !
b11 !
1+
1*
1,
1)
1"
#91000
b10 !
b0 !
0+
0*
0,
0)
0"
#91500
b1 !
b11 !
1+
1*
1,
1)
1"
#92000
b10 !
b0 !
0+
0*
0,
0)
0"
#92500
b1 !
b11 !
1+
1*
1,
1)
1"
#93000
b10 !
b0 !
0+
0*
0,
0)
0"
#93500
b1 !
b11 !
1+
1*
1,
1)
1"
#94000
b10 !
b0 !
0+
0*
0,
0)
0"
#94500
b1 !
b11 !
1+
1*
1,
1)
1"
#95000
b10 !
b0 !
0+
0*
0,
0)
0"
#95500
b1 !
b11 !
1+
1*
1,
1)
1"
#96000
b10 !
b0 !
0+
0*
0,
0)
0"
#96500
b1 !
b11 !
1+
1*
1,
1)
1"
#97000
b10 !
b0 !
0+
0*
0,
0)
0"
#97500
b1 !
b11 !
1+
1*
1,
1)
1"
#98000
b10 !
b0 !
0+
0*
0,
0)
0"
#98500
b1 !
b11 !
1+
1*
1,
1)
1"
#99000
b10 !
b0 !
0+
0*
0,
0)
0"
#99500
b1 !
b11 !
1+
1*
1,
1)
1"
#100000
b10 !
b0 !
0+
0*
0,
0)
0"
#100500
b1 !
b11 !
1+
1*
1,
1)
1"
#101000
b10 !
b0 !
0+
0*
0,
0)
0"
#101500
b1 !
b11 !
1+
1*
1,
1)
1"
#102000
b10 !
b0 !
0+
0*
0,
0)
0"
#102500
b1 !
b11 !
1+
1*
1,
1)
1"
#103000
b10 !
b0 !
0+
0*
0,
0)
0"
#103500
b1 !
b11 !
1+
1*
1,
1)
1"
#104000
b10 !
b0 !
0+
0*
0,
0)
0"
#104500
b1 !
b11 !
1+
1*
1,
1)
1"
#105000
b10 !
b0 !
0+
0*
0,
0)
0"
#105500
b1 !
b11 !
1+
1*
1,
1)
1"
#106000
b10 !
b0 !
0+
0*
0,
0)
0"
#106500
b1 !
b11 !
1+
1*
1,
1)
1"
#107000
b10 !
b0 !
0+
0*
0,
0)
0"
#107500
b1 !
b11 !
1+
1*
1,
1)
1"
#108000
b10 !
b0 !
0+
0*
0,
0)
0"
#108500
b1 !
b11 !
1+
1*
1,
1)
1"
#109000
b10 !
b0 !
0+
0*
0,
0)
0"
#109500
b1 !
b11 !
1+
1*
1,
1)
1"
#110000
b10 !
b0 !
0+
0*
0,
0)
0"
#110500
b1 !
b11 !
1+
1*
1,
1)
1"
#111000
b10 !
b0 !
0+
0*
0,
0)
0"
#111500
b1 !
b11 !
1+
1*
1,
1)
1"
#112000
b10 !
b0 !
0+
0*
0,
0)
0"
#112500
b1 !
b11 !
1+
1*
1,
1)
1"
#113000
b10 !
b0 !
0+
0*
0,
0)
0"
#113500
b1 !
b11 !
1+
1*
1,
1)
1"
#114000
b10 !
b0 !
0+
0*
0,
0)
0"
#114500
b1 !
b11 !
1+
1*
1,
1)
1"
#115000
b10 !
b0 !
0+
0*
0,
0)
0"
#115500
b1 !
b11 !
1+
1*
1,
1)
1"
#116000
b10 !
b0 !
0+
0*
0,
0)
0"
#116500
b1 !
b11 !
1+
1*
1,
1)
1"
#117000
b10 !
b0 !
0+
0*
0,
0)
0"
#117500
b1 !
b11 !
1+
1*
1,
1)
1"
#118000
b10 !
b0 !
0+
0*
0,
0)
0"
#118500
b1 !
b11 !
1+
1*
1,
1)
1"
#119000
b10 !
b0 !
0+
0*
0,
0)
0"
#119500
b1 !
b11 !
1+
1*
1,
1)
1"
#120000
b10 !
b0 !
0+
0*
0,
0)
0"
#120500
b1 !
b11 !
1+
1*
1,
1)
1"
#121000
b10 !
b0 !
0+
0*
0,
0)
0"
#121500
b1 !
b11 !
1+
1*
1,
1)
1"
#122000
b10 !
b0 !
0+
0*
0,
0)
0"
#122500
b1 !
b11 !
1+
1*
1,
1)
1"
#123000
b10 !
b0 !
0+
0*
0,
0)
0"
#123500
b1 !
b11 !
1+
1*
1,
1)
1"
#124000
b10 !
b0 !
0+
0*
0,
0)
0"
#124500
b1 !
b11 !
1+
1*
1,
1)
1"
#125000
b10 !
b0 !
0+
0*
0,
0)
0"
#125500
b1 !
b11 !
1+
1*
1,
1)
1"
#126000
b10 !
b0 !
0+
0*
0,
0)
0"
#126500
b1 !
b11 !
1+
1*
1,
1)
1"
#127000
b10 !
b0 !
0+
0*
0,
0)
0"
#127500
b1 !
b11 !
1+
1*
1,
1)
1"
#128000
b10 !
b0 !
0+
0*
0,
0)
0"
#128500
b1 !
b11 !
1+
1*
1,
1)
1"
#129000
b10 !
b0 !
0+
0*
0,
0)
0"
#129500
b1 !
b11 !
1+
1*
1,
1)
1"
#130000
b10 !
b0 !
0+
0*
0,
0)
0"
#130500
b1 !
b11 !
1+
1*
1,
1)
1"
#131000
b10 !
b0 !
0+
0*
0,
0)
0"
#131500
b1 !
b11 !
1+
1*
1,
1)
1"
#132000
b10 !
b0 !
0+
0*
0,
0)
0"
#132500
b1 !
b11 !
1+
1*
1,
1)
1"
#133000
b10 !
b0 !
0+
0*
0,
0)
0"
#133500
b1 !
b11 !
1+
1*
1,
1)
1"
#134000
b10 !
b0 !
0+
0*
0,
0)
0"
#134500
b1 !
b11 !
1+
1*
1,
1)
1"
#135000
b10 !
b0 !
0+
0*
0,
0)
0"
#135500
b1 !
b11 !
1+
1*
1,
1)
1"
#136000
b10 !
b0 !
0+
0*
0,
0)
0"
#136500
b1 !
b11 !
1+
1*
1,
1)
1"
#137000
b10 !
b0 !
0+
0*
0,
0)
0"
#137500
b1 !
b11 !
1+
1*
1,
1)
1"
#138000
b10 !
b0 !
0+
0*
0,
0)
0"
#138500
b1 !
b11 !
1+
1*
1,
1)
1"
#139000
b10 !
b0 !
0+
0*
0,
0)
0"
#139500
b1 !
b11 !
1+
1*
1,
1)
1"
#140000
b10 !
b0 !
0+
0*
0,
0)
0"
#140500
b1 !
b11 !
1+
1*
1,
1)
1"
#141000
b10 !
b0 !
0+
0*
0,
0)
0"
#141500
b1 !
b11 !
1+
1*
1,
1)
1"
#142000
b10 !
b0 !
0+
0*
0,
0)
0"
#142500
b1 !
b11 !
1+
1*
1,
1)
1"
#143000
b10 !
b0 !
0+
0*
0,
0)
0"
#143500
b1 !
b11 !
1+
1*
1,
1)
1"
#144000
b10 !
b0 !
0+
0*
0,
0)
0"
#144500
b1 !
b11 !
1+
1*
1,
1)
1"
#145000
b10 !
b0 !
0+
0*
0,
0)
0"
#145500
b1 !
b11 !
1+
1*
1,
1)
1"
#146000
b10 !
b0 !
0+
0*
0,
0)
0"
#146500
b1 !
b11 !
1+
1*
1,
1)
1"
#147000
b10 !
b0 !
0+
0*
0,
0)
0"
#147500
b1 !
b11 !
1+
1*
1,
1)
1"
#148000
b10 !
b0 !
0+
0*
0,
0)
0"
#148500
b1 !
b11 !
1+
1*
1,
1)
1"
#149000
b10 !
b0 !
0+
0*
0,
0)
0"
#149500
b1 !
b11 !
1+
1*
1,
1)
1"
#150000
b10 !
b0 !
0+
0*
0,
0)
0"
#150500
b1 !
b11 !
1+
1*
1,
1)
1"
#151000
b10 !
b0 !
0+
0*
0,
0)
0"
#151500
b1 !
b11 !
1+
1*
1,
1)
1"
#152000
b10 !
b0 !
0+
0*
0,
0)
0"
#152500
b1 !
b11 !
1+
1*
1,
1)
1"
#153000
b10 !
b0 !
0+
0*
0,
0)
0"
#153500
b1 !
b11 !
1+
1*
1,
1)
1"
#154000
b10 !
b0 !
0+
0*
0,
0)
0"
#154500
b1 !
b11 !
1+
1*
1,
1)
1"
#155000
b10 !
b0 !
0+
0*
0,
0)
0"
#155500
b1 !
b11 !
1+
1*
1,
1)
1"
#156000
b10 !
b0 !
0+
0*
0,
0)
0"
#156500
b1 !
b11 !
1+
1*
1,
1)
1"
#157000
b10 !
b0 !
0+
0*
0,
0)
0"
#157500
b1 !
b11 !
1+
1*
1,
1)
1"
#158000
b10 !
b0 !
0+
0*
0,
0)
0"
#158500
b1 !
b11 !
1+
1*
1,
1)
1"
#159000
b10 !
b0 !
0+
0*
0,
0)
0"
#159500
b1 !
b11 !
1+
1*
1,
1)
1"
#160000
b10 !
b0 !
0+
0*
0,
0)
0"
#160500
b1 !
b11 !
1+
1*
1,
1)
1"
#161000
b10 !
b0 !
0+
0*
0,
0)
0"
#161500
b1 !
b11 !
1+
1*
1,
1)
1"
#162000
b10 !
b0 !
0+
0*
0,
0)
0"
#162500
b1 !
b11 !
1+
1*
1,
1)
1"
#163000
b10 !
b0 !
0+
0*
0,
0)
0"
#163500
b1 !
b11 !
1+
1*
1,
1)
1"
#164000
b10 !
b0 !
0+
0*
0,
0)
0"
#164500
b1 !
b11 !
1+
1*
1,
1)
1"
#165000
b10 !
b0 !
0+
0*
0,
0)
0"
#165500
b1 !
b11 !
1+
1*
1,
1)
1"
#166000
b10 !
b0 !
0+
0*
0,
0)
0"
#166500
b1 !
b11 !
1+
1*
1,
1)
1"
#167000
b10 !
b0 !
0+
0*
0,
0)
0"
#167500
b1 !
b11 !
1+
1*
1,
1)
1"
#168000
b10 !
b0 !
0+
0*
0,
0)
0"
#168500
b1 !
b11 !
1+
1*
1,
1)
1"
#169000
b10 !
b0 !
0+
0*
0,
0)
0"
#169500
b1 !
b11 !
1+
1*
1,
1)
1"
#170000
b10 !
b0 !
0+
0*
0,
0)
0"
#170500
b1 !
b11 !
1+
1*
1,
1)
1"
#171000
b10 !
b0 !
0+
0*
0,
0)
0"
#171500
b1 !
b11 !
1+
1*
1,
1)
1"
#172000
b10 !
b0 !
0+
0*
0,
0)
0"
#172500
b1 !
b11 !
1+
1*
1,
1)
1"
#173000
b10 !
b0 !
0+
0*
0,
0)
0"
#173500
b1 !
b11 !
1+
1*
1,
1)
1"
#174000
b10 !
b0 !
0+
0*
0,
0)
0"
#174500
b1 !
b11 !
1+
1*
1,
1)
1"
#175000
b10 !
b0 !
0+
0*
0,
0)
0"
#175500
b1 !
b11 !
1+
1*
1,
1)
1"
#176000
b10 !
b0 !
0+
0*
0,
0)
0"
#176500
b1 !
b11 !
1+
1*
1,
1)
1"
#177000
b10 !
b0 !
0+
0*
0,
0)
0"
#177500
b1 !
b11 !
1+
1*
1,
1)
1"
#178000
b10 !
b0 !
0+
0*
0,
0)
0"
#178500
b1 !
b11 !
1+
1*
1,
1)
1"
#179000
b10 !
b0 !
0+
0*
0,
0)
0"
#179500
b1 !
b11 !
1+
1*
1,
1)
1"
#180000
b10 !
b0 !
0+
0*
0,
0)
0"
#180500
b1 !
b11 !
1+
1*
1,
1)
1"
#181000
b10 !
b0 !
0+
0*
0,
0)
0"
#181500
b1 !
b11 !
1+
1*
1,
1)
1"
#182000
b10 !
b0 !
0+
0*
0,
0)
0"
#182500
b1 !
b11 !
1+
1*
1,
1)
1"
#183000
b10 !
b0 !
0+
0*
0,
0)
0"
#183500
b1 !
b11 !
1+
1*
1,
1)
1"
#184000
b10 !
b0 !
0+
0*
0,
0)
0"
#184500
b1 !
b11 !
1+
1*
1,
1)
1"
#185000
b10 !
b0 !
0+
0*
0,
0)
0"
#185500
b1 !
b11 !
1+
1*
1,
1)
1"
#186000
b10 !
b0 !
0+
0*
0,
0)
0"
#186500
b1 !
b11 !
1+
1*
1,
1)
1"
#187000
b10 !
b0 !
0+
0*
0,
0)
0"
#187500
b1 !
b11 !
1+
1*
1,
1)
1"
#188000
b10 !
b0 !
0+
0*
0,
0)
0"
#188500
b1 !
b11 !
1+
1*
1,
1)
1"
#189000
b10 !
b0 !
0+
0*
0,
0)
0"
#189500
b1 !
b11 !
1+
1*
1,
1)
1"
#190000
b10 !
b0 !
0+
0*
0,
0)
0"
#190500
b1 !
b11 !
1+
1*
1,
1)
1"
#191000
b10 !
b0 !
0+
0*
0,
0)
0"
#191500
b1 !
b11 !
1+
1*
1,
1)
1"
#192000
b10 !
b0 !
0+
0*
0,
0)
0"
#192500
b1 !
b11 !
1+
1*
1,
1)
1"
#193000
b10 !
b0 !
0+
0*
0,
0)
0"
#193500
b1 !
b11 !
1+
1*
1,
1)
1"
#194000
b10 !
b0 !
0+
0*
0,
0)
0"
#194500
b1 !
b11 !
1+
1*
1,
1)
1"
#195000
b10 !
b0 !
0+
0*
0,
0)
0"
#195500
b1 !
b11 !
1+
1*
1,
1)
1"
#196000
b10 !
b0 !
0+
0*
0,
0)
0"
#196500
b1 !
b11 !
1+
1*
1,
1)
1"
#197000
b10 !
b0 !
0+
0*
0,
0)
0"
#197500
b1 !
b11 !
1+
1*
1,
1)
1"
#198000
b10 !
b0 !
0+
0*
0,
0)
0"
#198500
b1 !
b11 !
1+
1*
1,
1)
1"
#199000
b10 !
b0 !
0+
0*
0,
0)
0"
#199500
b1 !
b11 !
1+
1*
1,
1)
1"
#200000
b10 !
b0 !
0+
0*
0,
0)
0"
#200500
b1 !
b11 !
1+
1*
1,
1)
1"
#201000
b10 !
b0 !
0+
0*
0,
0)
0"
#201500
b1 !
b11 !
1+
1*
1,
1)
1"
#202000
b10 !
b0 !
0+
0*
0,
0)
0"
#202500
b1 !
b11 !
1+
1*
1,
1)
1"
#203000
b10 !
b0 !
0+
0*
0,
0)
0"
#203500
b1 !
b11 !
1+
1*
1,
1)
1"
#204000
b10 !
b0 !
0+
0*
0,
0)
0"
#204500
b1 !
b11 !
1+
1*
1,
1)
1"
#205000
b10 !
b0 !
0+
0*
0,
0)
0"
#205500
b1 !
b11 !
1+
1*
1,
1)
1"
#206000
b10 !
b0 !
0+
0*
0,
0)
0"
#206500
b1 !
b11 !
1+
1*
1,
1)
1"
#207000
b10 !
b0 !
0+
0*
0,
0)
0"
#207500
b1 !
b11 !
1+
1*
1,
1)
1"
#208000
b10 !
b0 !
0+
0*
0,
0)
0"
#208500
b1 !
b11 !
1+
1*
1,
1)
1"
#209000
b10 !
b0 !
0+
0*
0,
0)
0"
#209500
b1 !
b11 !
1+
1*
1,
1)
1"
#210000
b10 !
b0 !
0+
0*
0,
0)
0"
#210500
b1 !
b11 !
1+
1*
1,
1)
1"
#211000
b10 !
b0 !
0+
0*
0,
0)
0"
#211500
b1 !
b11 !
1+
1*
1,
1)
1"
#212000
b10 !
b0 !
0+
0*
0,
0)
0"
#212500
b1 !
b11 !
1+
1*
1,
1)
1"
#213000
b10 !
b0 !
0+
0*
0,
0)
0"
#213500
b1 !
b11 !
1+
1*
1,
1)
1"
#214000
b10 !
b0 !
0+
0*
0,
0)
0"
#214500
b1 !
b11 !
1+
1*
1,
1)
1"
#215000
b10 !
b0 !
0+
0*
0,
0)
0"
#215500
b1 !
b11 !
1+
1*
1,
1)
1"
#216000
b10 !
b0 !
0+
0*
0,
0)
0"
#216500
b1 !
b11 !
1+
1*
1,
1)
1"
#217000
b10 !
b0 !
0+
0*
0,
0)
0"
#217500
b1 !
b11 !
1+
1*
1,
1)
1"
#218000
b10 !
b0 !
0+
0*
0,
0)
0"
#218500
b1 !
b11 !
1+
1*
1,
1)
1"
#219000
b10 !
b0 !
0+
0*
0,
0)
0"
#219500
b1 !
b11 !
1+
1*
1,
1)
1"
#220000
b10 !
b0 !
0+
0*
0,
0)
0"
#220500
b1 !
b11 !
1+
1*
1,
1)
1"
#221000
b10 !
b0 !
0+
0*
0,
0)
0"
#221500
b1 !
b11 !
1+
1*
1,
1)
1"
#222000
b10 !
b0 !
0+
0*
0,
0)
0"
#222500
b1 !
b11 !
1+
1*
1,
1)
1"
#223000
b10 !
b0 !
0+
0*
0,
0)
0"
#223500
b1 !
b11 !
1+
1*
1,
1)
1"
#224000
b10 !
b0 !
0+
0*
0,
0)
0"
#224500
b1 !
b11 !
1+
1*
1,
1)
1"
#225000
b10 !
b0 !
0+
0*
0,
0)
0"
#225500
b1 !
b11 !
1+
1*
1,
1)
1"
#226000
b10 !
b0 !
0+
0*
0,
0)
0"
#226500
b1 !
b11 !
1+
1*
1,
1)
1"
#227000
b10 !
b0 !
0+
0*
0,
0)
0"
#227500
b1 !
b11 !
1+
1*
1,
1)
1"
#228000
b10 !
b0 !
0+
0*
0,
0)
0"
#228500
b1 !
b11 !
1+
1*
1,
1)
1"
#229000
b10 !
b0 !
0+
0*
0,
0)
0"
#229500
b1 !
b11 !
1+
1*
1,
1)
1"
#230000
b10 !
b0 !
0+
0*
0,
0)
0"
#230500
b1 !
b11 !
1+
1*
1,
1)
1"
#231000
b10 !
b0 !
0+
0*
0,
0)
0"
#231500
b1 !
b11 !
1+
1*
1,
1)
1"
#232000
b10 !
b0 !
0+
0*
0,
0)
0"
#232500
b1 !
b11 !
1+
1*
1,
1)
1"
#233000
b10 !
b0 !
0+
0*
0,
0)
0"
#233500
b1 !
b11 !
1+
1*
1,
1)
1"
#234000
b10 !
b0 !
0+
0*
0,
0)
0"
#234500
b1 !
b11 !
1+
1*
1,
1)
1"
#235000
b10 !
b0 !
0+
0*
0,
0)
0"
#235500
b1 !
b11 !
1+
1*
1,
1)
1"
#236000
b10 !
b0 !
0+
0*
0,
0)
0"
#236500
b1 !
b11 !
1+
1*
1,
1)
1"
#237000
b10 !
b0 !
0+
0*
0,
0)
0"
#237500
b1 !
b11 !
1+
1*
1,
1)
1"
#238000
b10 !
b0 !
0+
0*
0,
0)
0"
#238500
b1 !
b11 !
1+
1*
1,
1)
1"
#239000
b10 !
b0 !
0+
0*
0,
0)
0"
#239500
b1 !
b11 !
1+
1*
1,
1)
1"
#240000
b10 !
b0 !
0+
0*
0,
0)
0"
#240500
b1 !
b11 !
1+
1*
1,
1)
1"
#241000
b10 !
b0 !
0+
0*
0,
0)
0"
#241500
b1 !
b11 !
1+
1*
1,
1)
1"
#242000
b10 !
b0 !
0+
0*
0,
0)
0"
#242500
b1 !
b11 !
1+
1*
1,
1)
1"
#243000
b10 !
b0 !
0+
0*
0,
0)
0"
#243500
b1 !
b11 !
1+
1*
1,
1)
1"
#244000
b10 !
b0 !
0+
0*
0,
0)
0"
#244500
b1 !
b11 !
1+
1*
1,
1)
1"
#245000
b10 !
b0 !
0+
0*
0,
0)
0"
#245500
b1 !
b11 !
1+
1*
1,
1)
1"
#246000
b10 !
b0 !
0+
0*
0,
0)
0"
#246500
b1 !
b11 !
1+
1*
1,
1)
1"
#247000
b10 !
b0 !
0+
0*
0,
0)
0"
#247500
b1 !
b11 !
1+
1*
1,
1)
1"
#248000
b10 !
b0 !
0+
0*
0,
0)
0"
#248500
b1 !
b11 !
1+
1*
1,
1)
1"
#249000
b10 !
b0 !
0+
0*
0,
0)
0"
#249500
b1 !
b11 !
1+
1*
1,
1)
1"
#250000
b10 !
b0 !
0+
0*
0,
0)
0"
#250500
b1 !
b11 !
1+
1*
1,
1)
1"
#251000
b10 !
b0 !
0+
0*
0,
0)
0"
#251500
b1 !
b11 !
1+
1*
1,
1)
1"
