simulation/qsim/CPU.msim.vcd
$comment
	File created using the following command:
		vcd file CPU.msim.vcd -direction
$end
$date
	Wed Oct 19 23:04:25 2022
$end
$version
	ModelSim Version 10.5b
$end
$timescale
	1ps
$end

$scope module count8_vhd_vec_tst $end
$var wire 1 ! b_out [7] $end
$var wire 1 " b_out [6] $end
$var wire 1 # b_out [5] $end
$var wire 1 $ b_out [4] $end
$var wire 1 % b_out [3] $end
$var wire 1 & b_out [2] $end
$var wire 1 ' b_out [1] $end
$var wire 1 ( b_out [0] $end
$var wire 1 ) C [3] $end
$var wire 1 * C [2] $end
$var wire 1 + C [1] $end
$var wire 1 , C [0] $end
$var wire 1 - CLK_in $end
$var wire 1 . JUMP $end
$var wire 1 / MCLEAR $end

$scope module i1 $end
$var wire 1 0 gnd $end
$var wire 1 1 vcc $end
$var wire 1 2 unknown $end
$var wire 1 3 devoe $end
$var wire 1 4 devclrn $end
$var wire 1 5 devpor $end
$var wire 1 6 ww_devoe $end
$var wire 1 7 ww_devclrn $end
$var wire 1 8 ww_devpor $end
$var wire 1 9 ww_b_out [7] $end
$var wire 1 : ww_b_out [6] $end
$var wire 1 ; ww_b_out [5] $end
$var wire 1 < ww_b_out [4] $end
$var wire 1 = ww_b_out [3] $end
$var wire 1 > ww_b_out [2] $end
$var wire 1 ? ww_b_out [1] $end
$var wire 1 @ ww_b_out [0] $end
$var wire 1 A ww_CLK_in $end
$var wire 1 B ww_JUMP $end
$var wire 1 C ww_C [3] $end
$var wire 1 D ww_C [2] $end
$var wire 1 E ww_C [1] $end
$var wire 1 F ww_C [0] $end
$var wire 1 G ww_MCLEAR $end
$var wire 1 H \CLK_in~inputclkctrl_INCLK_bus\ [3] $end
$var wire 1 I \CLK_in~inputclkctrl_INCLK_bus\ [2] $end
$var wire 1 J \CLK_in~inputclkctrl_INCLK_bus\ [1] $end
$var wire 1 K \CLK_in~inputclkctrl_INCLK_bus\ [0] $end
$var wire 1 L \b_out[7]~output_o\ $end
$var wire 1 M \b_out[6]~output_o\ $end
$var wire 1 N \b_out[5]~output_o\ $end
$var wire 1 O \b_out[4]~output_o\ $end
$var wire 1 P \b_out[3]~output_o\ $end
$var wire 1 Q \b_out[2]~output_o\ $end
$var wire 1 R \b_out[1]~output_o\ $end
$var wire 1 S \b_out[0]~output_o\ $end
$var wire 1 T \CLK_in~input_o\ $end
$var wire 1 U \CLK_in~inputclkctrl_outclk\ $end
$var wire 1 V \C[1]~input_o\ $end
$var wire 1 W \JUMP~input_o\ $end
$var wire 1 X \MCLEAR~input_o\ $end
$var wire 1 Y \inst23~combout\ $end
$var wire 1 Z \inst48~combout\ $end
$var wire 1 [ \inst9~1_combout\ $end
$var wire 1 \ \C[0]~input_o\ $end
$var wire 1 ] \inst6~combout\ $end
$var wire 1 ^ \inst4~combout\ $end
$var wire 1 _ \inst47~1_combout\ $end
$var wire 1 ` \inst47~3_combout\ $end
$var wire 1 a \inst47~0_combout\ $end
$var wire 1 b \inst47~_emulated_q\ $end
$var wire 1 c \inst47~2_combout\ $end
$var wire 1 d \inst9~3_combout\ $end
$var wire 1 e \inst9~0_combout\ $end
$var wire 1 f \inst9~_emulated_q\ $end
$var wire 1 g \inst9~2_combout\ $end
$var wire 1 h \C[2]~input_o\ $end
$var wire 1 i \inst24~combout\ $end
$var wire 1 j \inst18~combout\ $end
$var wire 1 k \inst10~1_combout\ $end
$var wire 1 l \inst10~3_combout\ $end
$var wire 1 m \inst10~0_combout\ $end
$var wire 1 n \inst10~_emulated_q\ $end
$var wire 1 o \inst10~2_combout\ $end
$var wire 1 p \inst19~combout\ $end
$var wire 1 q \C[3]~input_o\ $end
$var wire 1 r \inst25~combout\ $end
$var wire 1 s \inst44~combout\ $end
$var wire 1 t \inst11~1_combout\ $end
$var wire 1 u \inst11~3_combout\ $end
$var wire 1 v \inst11~0_combout\ $end
$var wire 1 w \inst11~_emulated_q\ $end
$var wire 1 x \inst11~2_combout\ $end
$var wire 1 y \inst30~0_combout\ $end
$var wire 1 z \inst53~combout\ $end
$var wire 1 { \inst30~q\ $end
$var wire 1 | \inst40~combout\ $end
$var wire 1 } \inst31~0_combout\ $end
$var wire 1 ~ \inst31~q\ $end
$var wire 1 !! \inst32~0_combout\ $end
$var wire 1 "! \inst32~q\ $end
$var wire 1 #! \inst33~0_combout\ $end
$var wire 1 $! \inst33~1_combout\ $end
$var wire 1 %! \inst33~q\ $end
$var wire 1 &! \ALT_INV_inst47~0_combout\ $end
$var wire 1 '! \ALT_INV_inst9~0_combout\ $end
$var wire 1 (! \ALT_INV_inst10~0_combout\ $end
$var wire 1 )! \ALT_INV_inst11~0_combout\ $end
$var wire 1 *! \ALT_INV_inst53~combout\ $end
$upscope $end
$upscope $end
$enddefinitions $end
#0
$dumpvars
0-
0.
0/
00
11
x2
13
14
15
16
17
18
0A
0B
0G
0L
0M
0N
0O
xP
xQ
xR
xS
0T
0U
0V
0W
0X
0Y
0Z
x[
0\
0]
0^
x_
x`
0a
0b
xc
xd
0e
0f
xg
0h
0i
0j
xk
xl
0m
0n
xo
xp
0q
0r
0s
xt
xu
0v
0w
xx
xy
0z
0{
0|
0}
0~
0!!
0"!
1#!
0$!
0%!
1&!
1'!
1(!
1)!
1*!
0)
0*
0+
0,
09
0:
0;
0<
x=
x>
x?
x@
0C
0D
0E
0F
1H
1I
1J
0K
0!
0"
0#
0$
x%
x&
x'
x(
$end
#1000
1,
1F
1\
#2000
0,
1+
0F
1E
1V
0\
#3000
1,
1F
1\
#4000
0,
0+
1*
0F
0E
1D
1h
0V
0\
#5000
1,
1.
1F
1B
1W
1\
#6000
0,
1+
0F
1E
1V
0\
#7000
1,
1F
1\
#8000
0,
0+
0*
1)
0F
0E
0D
1C
1q
0h
0V
0\
#9000
1,
1F
1\
#10000
0,
1+
0.
0F
1E
0B
0W
1V
0\
#11000
1,
1F
1\
#12000
0,
0+
1*
0F
0E
1D
1h
0V
0\
#13000
1,
1F
1\
#14000
0,
1+
0F
1E
1V
0\
#15000
1,
1.
1/
1F
1B
1G
1X
1W
1\
1Y
1]
1i
1s
1z
0*!
0t
1v
0x
0k
1m
0o
0_
1a
0c
0[
1e
0g
0'!
0&!
0(!
0)!
0d
0p
1`
0l
0y
0u
0R
0S
0Q
0P
0?
0@
0>
0=
0(
0'
0&
0%
#16000
0,
0+
0*
0)
0F
0E
0D
0C
0q
0h
0V
0\
#17000
1,
1F
1\
#18000
0,
1+
0F
1E
1V
0\
#19000
1,
1F
1\
#20000
0,
0+
1*
0.
0F
0E
1D
0B
0W
1h
0V
0\
#21000
1,
1F
1\
#22000
0,
1+
0F
1E
1V
0\
#23000
1,
1F
1\
#24000
0,
0+
0*
1)
0F
0E
0D
1C
1q
0h
0V
0\
#25000
1,
1.
1F
1B
1W
1\
#26000
0,
1+
0F
1E
1V
0\
#27000
1,
1F
1\
#28000
0,
0+
1*
0F
0E
1D
1h
0V
0\
#29000
1,
1F
1\
#30000
0,
1+
0.
0/
0F
1E
0B
0G
0X
0W
1V
0\
0Y
0]
0i
0s
0z
1*!
0v
0m
0a
0e
1'!
1&!
1(!
1)!
#31000
1,
1F
1\
#32000
0,
0+
0*
0)
0F
0E
0D
0C
0q
0h
0V
0\
#33000
1,
1F
1\
#34000
0,
1+
0F
1E
1V
0\
#35000
1,
1.
1F
1B
1W
1\
#36000
0,
0+
1*
0F
0E
1D
1h
0V
0\
#37000
1,
1F
1\
#38000
0,
1+
0F
1E
1V
0\
#39000
1,
1F
1\
#40000
0,
0+
0*
0.
1)
0F
0E
0D
1C
0B
0W
1q
0h
0V
0\
#41000
1,
1F
1\
#42000
0,
1+
0F
1E
1V
0\
#43000
1,
1F
1\
#44000
0,
0+
1*
0F
0E
1D
1h
0V
0\
#45000
1,
1.
1/
1F
1B
1G
1X
1W
1\
1Y
1]
1i
1s
1z
0*!
1v
1m
1a
1e
0'!
0&!
0(!
0)!
#46000
0,
1+
0F
1E
1V
0\
#47000
1,
1F
1\
#48000
0,
0+
0*
0)
0F
0E
0D
0C
0q
0h
0V
0\
#49000
1,
1F
1\
#50000
0,
1+
0.
0F
1E
0B
0W
1V
0\
#51000
1,
1F
1\
#52000
0,
0+
1*
0F
0E
1D
1h
0V
0\
#53000
1,
1F
1\
#54000
0,
1+
0F
1E
1V
0\
#55000
1,
1.
1F
1B
1W
1\
#56000
0,
0+
0*
1)
0F
0E
0D
1C
1q
0h
0V
0\
#57000
1,
1F
1\
#58000
0,
1+
0F
1E
1V
0\
#59000
1,
1F
1\
#60000
0,
0+
1*
0.
0/
0F
0E
1D
0B
0G
0X
0W
1h
0V
0\
0Y
0]
0i
0s
0z
1*!
0v
0m
0a
0e
1'!
1&!
1(!
1)!
#61000
1,
1F
1\
#62000
0,
1+
0F
1E
1V
0\
#63000
1,
1F
1\
#64000
0,
0+
0*
0)
0F
0E
0D
0C
0q
0h
0V
0\
#65000
1,
1.
1F
1B
1W
1\
#66000
0,
1+
0F
1E
1V
0\
#67000
1,
1F
1\
#68000
0,
0+
1*
0F
0E
1D
1h
0V
0\
#69000
1,
1F
1\
#70000
0,
1+
0.
0F
1E
0B
0W
1V
0\
#71000
1,
1F
1\
#72000
0,
0+
0*
1)
0F
0E
0D
1C
1q
0h
0V
0\
#73000
1,
1F
1\
#74000
0,
1+
0F
1E
1V
0\
#75000
1,
1.
1/
1F
1B
1G
1X
1W
1\
1Y
1]
1i
1s
1z
0*!
1v
1m
1a
1e
0'!
0&!
0(!
0)!
#76000
0,
0+
1*
0F
0E
1D
1h
0V
0\
#77000
1,
1F
1\
#78000
0,
1+
0F
1E
1V
0\
#79000
1,
1F
1\
#80000
0,
0+
0*
0.
0)
0F
0E
0D
0C
0B
0W
0q
0h
0V
0\
#81000
1,
1F
1\
#82000
0,
1+
0F
1E
1V
0\
#83000
1,
1F
1\
#84000
0,
0+
1*
0F
0E
1D
1h
0V
0\
#85000
1,
1.
1F
1B
1W
1\
#86000
0,
1+
0F
1E
1V
0\
#87000
1,
1F
1\
#88000
0,
0+
0*
1)
0F
0E
0D
1C
1q
0h
0V
0\
#89000
1,
1F
1\
#90000
0,
1+
0.
0/
0F
1E
0B
0G
0X
0W
1V
0\
0Y
0]
0i
0s
0z
1*!
0v
0m
0a
0e
1'!
1&!
1(!
1)!
#91000
1,
1F
1\
#92000
0,
0+
1*
0F
0E
1D
1h
0V
0\
#93000
1,
1F
1\
#94000
0,
1+
0F
1E
1V
0\
#95000
1,
1.
1F
1B
1W
1\
#96000
0,
0+
0*
0)
0F
0E
0D
0C
0q
0h
0V
0\
#97000
1,
1F
1\
#98000
0,
1+
0F
1E
1V
0\
#99000
1,
1F
1\
#100000
0,
0+
1*
0.
0F
0E
1D
0B
0W
1h
0V
0\
#101000
1,
1F
1\
#102000
0,
1+
0F
1E
1V
0\
#103000
1,
1F
1\
#104000
0,
0+
0*
1)
0F
0E
0D
1C
1q
0h
0V
0\
#105000
1,
1.
1/
1F
1B
1G
1X
1W
1\
1Y
1]
1i
1s
1z
0*!
1v
1m
1a
1e
0'!
0&!
0(!
0)!
#106000
0,
1+
0F
1E
1V
0\
#107000
1,
1F
1\
#108000
0,
0+
1*
0F
0E
1D
1h
0V
0\
#109000
1,
1F
1\
#110000
0,
1+
0.
0F
1E
0B
0W
1V
0\
#111000
1,
1F
1\
#112000
0,
0+
0*
0)
0F
0E
0D
0C
0q
0h
0V
0\
#113000
1,
1F
1\
#114000
0,
1+
0F
1E
1V
0\
#115000
1,
1.
1F
1B
1W
1\
#116000
0,
0+
1*
0F
0E
1D
1h
0V
0\
#117000
1,
1F
1\
#118000
0,
1+
0F
1E
1V
0\
#119000
1,
1F
1\
#120000
0,
0+
0*
0.
1)
0/
0F
0E
0D
1C
0B
0G
0X
0W
1q
0h
0V
0\
0Y
0]
0i
0s
0z
1*!
0v
0m
0a
0e
1'!
1&!
1(!
1)!
#121000
1,
1F
1\
#122000
0,
1+
0F
1E
1V
0\
#123000
1,
1F
1\
#124000
0,
0+
1*
0F
0E
1D
1h
0V
0\
#125000
1,
1.
1F
1B
1W
1\
#126000
0,
1+
0F
1E
1V
0\
#127000
1,
1F
1\
#128000
0,
0+
0*
0)
0F
0E
0D
0C
0q
0h
0V
0\
#129000
1,
1F
1\
#130000
0,
1+
0.
0F
1E
0B
0W
1V
0\
#131000
1,
1F
1\
#132000
0,
0+
1*
0F
0E
1D
1h
0V
0\
#133000
1,
1F
1\
#134000
0,
1+
0F
1E
1V
0\
#135000
1,
1.
1/
1F
1B
1G
1X
1W
1\
1Y
1]
1i
1s
1z
0*!
1v
1m
1a
1e
0'!
0&!
0(!
0)!
#136000
0,
0+
0*
1)
0F
0E
0D
1C
1q
0h
0V
0\
#137000
1,
1F
1\
#138000
0,
1+
0F
1E
1V
0\
#139000
1,
1F
1\
#140000
0,
0+
1*
0.
0F
0E
1D
0B
0W
1h
0V
0\
#141000
1,
1F
1\
#142000
0,
1+
0F
1E
1V
0\
#143000
1,
1F
1\
#144000
0,
0+
0*
0)
0F
0E
0D
0C
0q
0h
0V
0\
#145000
1,
1.
1F
1B
1W
1\
#146000
0,
1+
0F
1E
1V
0\
#147000
1,
1F
1\
#148000
0,
0+
1*
0F
0E
1D
1h
0V
0\
#149000
1,
1F
1\
#150000
0,
1+
0.
0/
0F
1E
0B
0G
0X
0W
1V
0\
0Y
0]
0i
0s
0z
1*!
0v
0m
0a
0e
1'!
1&!
1(!
1)!
#151000
1,
1F
1\
#152000
0,
0+
0*
1)
0F
0E
0D
1C
1q
0h
0V
0\
#153000
1,
1F
1\
#154000
0,
1+
0F
1E
1V
0\
#155000
1,
1.
1F
1B
1W
1\
#156000
0,
0+
1*
0F
0E
1D
1h
0V
0\
#157000
1,
1F
1\
#158000
0,
1+
0F
1E
1V
0\
#159000
1,
1F
1\
#160000
0,
0+
0*
0.
0)
0F
0E
0D
0C
0B
0W
0q
0h
0V
0\
#161000
1,
1F
1\
#162000
0,
1+
0F
1E
1V
0\
#163000
1,
1F
1\
#164000
0,
0+
1*
0F
0E
1D
1h
0V
0\
#165000
1,
1.
1/
1F
1B
1G
1X
1W
1\
1Y
1]
1i
1s
1z
0*!
1v
1m
1a
1e
0'!
0&!
0(!
0)!
#166000
0,
1+
0F
1E
1V
0\
#167000
1,
1F
1\
#168000
0,
0+
0*
1)
0F
0E
0D
1C
1q
0h
0V
0\
#169000
1,
1F
1\
#170000
0,
1+
0.
0F
1E
0B
0W
1V
0\
#171000
1,
1F
1\
#172000
0,
0+
1*
0F
0E
1D
1h
0V
0\
#173000
1,
1F
1\
#174000
0,
1+
0F
1E
1V
0\
#175000
1,
1.
1F
1B
1W
1\
#176000
0,
0+
0*
0)
0F
0E
0D
0C
0q
0h
0V
0\
#177000
1,
1F
1\
#178000
0,
1+
0F
1E
1V
0\
#179000
1,
1F
1\
#180000
0,
0+
1*
0.
0/
0F
0E
1D
0B
0G
0X
0W
1h
0V
0\
0Y
0]
0i
0s
0z
1*!
0v
0m
0a
0e
1'!
1&!
1(!
1)!
#181000
1,
1F
1\
#182000
0,
1+
0F
1E
1V
0\
#183000
1,
1F
1\
#184000
0,
0+
0*
1)
0F
0E
0D
1C
1q
0h
0V
0\
#185000
1,
1.
1F
1B
1W
1\
#186000
0,
1+
0F
1E
1V
0\
#187000
1,
1F
1\
#188000
0,
0+
1*
0F
0E
1D
1h
0V
0\
#189000
1,
1F
1\
#190000
0,
1+
0.
0F
1E
0B
0W
1V
0\
#191000
1,
1F
1\
#192000
0,
0+
0*
0)
0F
0E
0D
0C
0q
0h
0V
0\
#193000
1,
1F
1\
#194000
0,
1+
0F
1E
1V
0\
#195000
1,
1.
1/
1F
1B
1G
1X
1W
1\
1Y
1]
1i
1s
1z
0*!
1v
1m
1a
1e
0'!
0&!
0(!
0)!
#196000
0,
0+
1*
0F
0E
1D
1h
0V
0\
#197000
1,
1F
1\
#198000
0,
1+
0F
1E
1V
0\
#199000
1,
1F
1\
#200000
0,
0+
0*
0.
1)
0F
0E
0D
1C
0B
0W
1q
0h
0V
0\
#201000
1,
1F
1\
#202000
0,
1+
0F
1E
1V
0\
#203000
1,
1F
1\
#204000
0,
0+
1*
0F
0E
1D
1h
0V
0\
#205000
1,
1.
1F
1B
1W
1\
#206000
0,
1+
0F
1E
1V
0\
#207000
1,
1F
1\
#208000
0,
0+
0*
0)
0F
0E
0D
0C
0q
0h
0V
0\
#209000
1,
1F
1\
#210000
0,
1+
0.
0/
0F
1E
0B
0G
0X
0W
1V
0\
0Y
0]
0i
0s
0z
1*!
0v
0m
0a
0e
1'!
1&!
1(!
1)!
#211000
1,
1F
1\
#212000
0,
0+
1*
0F
0E
1D
1h
0V
0\
#213000
1,
1F
1\
#214000
0,
1+
0F
1E
1V
0\
#215000
1,
1.
1F
1B
1W
1\
#216000
0,
0+
0*
1)
0F
0E
0D
1C
1q
0h
0V
0\
#217000
1,
1F
1\
#218000
0,
1+
0F
1E
1V
0\
#219000
1,
1F
1\
#220000
0,
0+
1*
0.
0F
0E
1D
0B
0W
1h
0V
0\
#221000
1,
1F
1\
#222000
0,
1+
0F
1E
1V
0\
#223000
1,
1F
1\
#224000
0,
0+
0*
0)
0F
0E
0D
0C
0q
0h
0V
0\
#225000
1,
1.
1/
1F
1B
1G
1X
1W
1\
1Y
1]
1i
1s
1z
0*!
1v
1m
1a
1e
0'!
0&!
0(!
0)!
#226000
0,
1+
0F
1E
1V
0\
#227000
1,
1F
1\
#228000
0,
0+
1*
0F
0E
1D
1h
0V
0\
#229000
1,
1F
1\
#230000
0,
1+
0.
0F
1E
0B
0W
1V
0\
#231000
1,
1F
1\
#232000
0,
0+
0*
1)
0F
0E
0D
1C
1q
0h
0V
0\
#233000
1,
1F
1\
#234000
0,
1+
0F
1E
1V
0\
#235000
1,
1.
1F
1B
1W
1\
#236000
0,
0+
1*
0F
0E
1D
1h
0V
0\
#237000
1,
1F
1\
#238000
0,
1+
0F
1E
1V
0\
#239000
1,
1F
1\
#240000
0,
0+
0*
0.
0)
0/
0F
0E
0D
0C
0B
0G
0X
0W
0q
0h
0V
0\
0Y
0]
0i
0s
0z
1*!
0v
0m
0a
0e
1'!
1&!
1(!
1)!
#241000
1,
1F
1\
#242000
0,
1+
0F
1E
1V
0\
#243000
1,
1F
1\
#244000
0,
0+
1*
0F
0E
1D
1h
0V
0\
#245000
1,
1.
1F
1B
1W
1\
#246000
0,
1+
0F
1E
1V
0\
#247000
1,
1F
1\
#248000
0,
0+
0*
1)
0F
0E
0D
1C
1q
0h
0V
0\
#249000
1,
1F
1\
#250000
0,
1+
0.
0F
1E
0B
0W
1V
0\
#251000
1,
1F
1\
#252000
0,
0+
1*
0F
0E
1D
1h
0V
0\
#253000
1,
1F
1\
#254000
0,
1+
0F
1E
1V
0\
#255000
1,
1.
1/
1F
1B
1G
1X
1W
1\
1Y
1]
1i
1s
1z
0*!
1v
1m
1a
1e
0'!
0&!
0(!
0)!
#256000
0,
0+
0*
0)
0F
0E
0D
0C
0q
0h
0V
0\
#257000
1,
1F
1\
#258000
0,
1+
0F
1E
1V
0\
#259000
1,
1F
1\
#260000
0,
0+
1*
0.
0F
0E
1D
0B
0W
1h
0V
0\
#261000
1,
1F
1\
#262000
0,
1+
0F
1E
1V
0\
#263000
1,
1F
1\
#264000
0,
0+
0*
1)
0F
0E
0D
1C
1q
0h
0V
0\
#265000
1,
1.
1F
1B
1W
1\
#266000
0,
1+
0F
1E
1V
0\
#267000
1,
1F
1\
#268000
0,
0+
1*
0F
0E
1D
1h
0V
0\
#269000
1,
1F
1\
#270000
0,
1+
0.
0/
0F
1E
0B
0G
0X
0W
1V
0\
0Y
0]
0i
0s
0z
1*!
0v
0m
0a
0e
1'!
1&!
1(!
1)!
#271000
1,
1F
1\
#272000
0,
0+
0*
0)
0F
0E
0D
0C
0q
0h
0V
0\
#273000
1,
1F
1\
#274000
0,
1+
0F
1E
1V
0\
#275000
1,
1.
1F
1B
1W
1\
#276000
0,
0+
1*
0F
0E
1D
1h
0V
0\
#277000
1,
1F
1\
#278000
0,
1+
0F
1E
1V
0\
#279000
1,
1F
1\
#280000
0,
0+
0*
0.
1)
0F
0E
0D
1C
0B
0W
1q
0h
0V
0\
#281000
1,
1F
1\
#282000
0,
1+
0F
1E
1V
0\
#283000
1,
1F
1\
#284000
0,
0+
1*
0F
0E
1D
1h
0V
0\
#285000
1,
1.
1/
1F
1B
1G
1X
1W
1\
1Y
1]
1i
1s
1z
0*!
1v
1m
1a
1e
0'!
0&!
0(!
0)!
#286000
0,
1+
0F
1E
1V
0\
#287000
1,
1F
1\
#288000
0,
0+
0*
0)
0F
0E
0D
0C
0q
0h
0V
0\
#289000
1,
1F
1\
#290000
0,
1+
0.
0F
1E
0B
0W
1V
0\
#291000
1,
1F
1\
#292000
0,
0+
1*
0F
0E
1D
1h
0V
0\
#293000
1,
1F
1\
#294000
0,
1+
0F
1E
1V
0\
#295000
1,
1.
1F
1B
1W
1\
#296000
0,
0+
0*
1)
0F
0E
0D
1C
1q
0h
0V
0\
#297000
1,
1F
1\
#298000
0,
1+
0F
1E
1V
0\
#299000
1,
1F
1\
#300000
0,
0+
1*
0.
0/
0F
0E
1D
0B
0G
0X
0W
1h
0V
0\
0Y
0]
0i
0s
0z
1*!
0v
0m
0a
0e
1'!
1&!
1(!
1)!
#301000
1,
1F
1\
#302000
0,
1+
0F
1E
1V
0\
#303000
1,
1F
1\
#304000
0,
0+
0*
0)
0F
0E
0D
0C
0q
0h
0V
0\
#305000
1,
1.
1F
1B
1W
1\
#306000
0,
1+
0F
1E
1V
0\
#307000
1,
1F
1\
#308000
0,
0+
1*
0F
0E
1D
1h
0V
0\
#309000
1,
1F
1\
#310000
0,
1+
0.
0F
1E
0B
0W
1V
0\
#311000
1,
1F
1\
#312000
0,
0+
0*
1)
0F
0E
0D
1C
1q
0h
0V
0\
#313000
1,
1F
1\
#314000
0,
1+
0F
1E
1V
0\
#315000
1,
1.
1/
1F
1B
1G
1X
1W
1\
1Y
1]
1i
1s
1z
0*!
1v
1m
1a
1e
0'!
0&!
0(!
0)!
#316000
0,
0+
1*
0F
0E
1D
1h
0V
0\
#317000
1,
1F
1\
#318000
0,
1+
0F
1E
1V
0\
#319000
1,
1F
1\
#320000
0,
0+
0*
0.
0)
0F
0E
0D
0C
0B
0W
0q
0h
0V
0\
#321000
1,
1F
1\
#322000
0,
1+
0F
1E
1V
0\
#323000
1,
1F
1\
#324000
0,
0+
1*
0F
0E
1D
1h
0V
0\
#325000
1,
1.
1F
1B
1W
1\
#326000
0,
1+
0F
1E
1V
0\
#327000
1,
1F
1\
#328000
0,
0+
0*
1)
0F
0E
0D
1C
1q
0h
0V
0\
#329000
1,
1F
1\
#330000
0,
1+
0.
0/
0F
1E
0B
0G
0X
0W
1V
0\
0Y
0]
0i
0s
0z
1*!
0v
0m
0a
0e
1'!
1&!
1(!
1)!
#331000
1,
1F
1\
#332000
0,
0+
1*
0F
0E
1D
1h
0V
0\
#333000
1,
1F
1\
#334000
0,
1+
0F
1E
1V
0\
#335000
1,
1.
1F
1B
1W
1\
#336000
0,
0+
0*
0)
0F
0E
0D
0C
0q
0h
0V
0\
#337000
1,
1F
1\
#338000
0,
1+
0F
1E
1V
0\
#339000
1,
1F
1\
#340000
0,
0+
1*
0.
0F
0E
1D
0B
0W
1h
0V
0\
#341000
1,
1F
1\
#342000
0,
1+
0F
1E
1V
0\
#343000
1,
1F
1\
#344000
0,
0+
0*
1)
0F
0E
0D
1C
1q
0h
0V
0\
#345000
1,
1.
1/
1F
1B
1G
1X
1W
1\
1Y
1]
1i
1s
1z
0*!
1v
1m
1a
1e
0'!
0&!
0(!
0)!
#346000
0,
1+
0F
1E
1V
0\
#347000
1,
1F
1\
#348000
0,
0+
1*
0F
0E
1D
1h
0V
0\
#349000
1,
1F
1\
#350000
0,
1+
0.
0F
1E
0B
0W
1V
0\
#351000
1,
1F
1\
#352000
0,
0+
0*
0)
0F
0E
0D
0C
0q
0h
0V
0\
#353000
1,
1F
1\
#354000
0,
1+
0F
1E
1V
0\
#355000
1,
1.
1F
1B
1W
1\
#356000
0,
0+
1*
0F
0E
1D
1h
0V
0\
#357000
1,
1F
1\
#358000
0,
1+
0F
1E
1V
0\
#359000
1,
1F
1\
#360000
0,
0+
0*
0.
1)
0/
0F
0E
0D
1C
0B
0G
0X
0W
1q
0h
0V
0\
0Y
0]
0i
0s
0z
1*!
0v
0m
0a
0e
1'!
1&!
1(!
1)!
#361000
1,
1F
1\
#362000
0,
1+
0F
1E
1V
0\
#363000
1,
1F
1\
#364000
0,
0+
1*
0F
0E
1D
1h
0V
0\
#365000
1,
1.
1F
1B
1W
1\
#366000
0,
1+
0F
1E
1V
0\
#367000
1,
1F
1\
#368000
0,
0+
0*
0)
0F
0E
0D
0C
0q
0h
0V
0\
#369000
1,
1F
1\
#370000
0,
1+
0.
0F
1E
0B
0W
1V
0\
#371000
1,
1F
1\
#372000
0,
0+
1*
0F
0E
1D
1h
0V
0\
#373000
1,
1F
1\
#374000
0,
1+
0F
1E
1V
0\
#375000
1,
1.
1/
1F
1B
1G
1X
1W
1\
1Y
1]
1i
1s
1z
0*!
1v
1m
1a
1e
0'!
0&!
0(!
0)!
#376000
0,
0+
0*
1)
0F
0E
0D
1C
1q
0h
0V
0\
#377000
1,
1F
1\
#378000
0,
1+
0F
1E
1V
0\
#379000
1,
1F
1\
#380000
0,
0+
1*
0.
0F
0E
1D
0B
0W
1h
0V
0\
#381000
1,
1F
1\
#382000
0,
1+
0F
1E
1V
0\
#383000
1,
1F
1\
#384000
0,
0+
0*
0)
0F
0E
0D
0C
0q
0h
0V
0\
#385000
1,
1.
1F
1B
1W
1\
#386000
0,
1+
0F
1E
1V
0\
#387000
1,
1F
1\
#388000
0,
0+
1*
0F
0E
1D
1h
0V
0\
#389000
1,
1F
1\
#390000
0,
1+
0.
0/
0F
1E
0B
0G
0X
0W
1V
0\
0Y
0]
0i
0s
0z
1*!
0v
0m
0a
0e
1'!
1&!
1(!
1)!
#391000
1,
1F
1\
#392000
0,
0+
0*
1)
0F
0E
0D
1C
1q
0h
0V
0\
#393000
1,
1F
1\
#394000
0,
1+
0F
1E
1V
0\
#395000
1,
1.
1F
1B
1W
1\
#396000
0,
0+
1*
0F
0E
1D
1h
0V
0\
#397000
1,
1F
1\
#398000
0,
1+
0F
1E
1V
0\
#399000
1,
1F
1\
#400000
0,
0+
0*
0.
0)
0F
0E
0D
0C
0B
0W
0q
0h
0V
0\
#401000
1,
1F
1\
#402000
0,
1+
0F
1E
1V
0\
#403000
1,
1F
1\
#404000
0,
0+
1*
0F
0E
1D
1h
0V
0\
#405000
1,
1.
1/
1F
1B
1G
1X
1W
1\
1Y
1]
1i
1s
1z
0*!
1v
1m
1a
1e
0'!
0&!
0(!
0)!
#406000
0,
1+
0F
1E
1V
0\
#407000
1,
1F
1\
#408000
0,
0+
0*
1)
0F
0E
0D
1C
1q
0h
0V
0\
#409000
1,
1F
1\
#410000
0,
1+
0.
0F
1E
0B
0W
1V
0\
#411000
1,
1F
1\
#412000
0,
0+
1*
0F
0E
1D
1h
0V
0\
#413000
1,
1F
1\
#414000
0,
1+
0F
1E
1V
0\
#415000
1,
1.
1F
1B
1W
1\
#416000
0,
0+
0*
0)
0F
0E
0D
0C
0q
0h
0V
0\
#417000
1,
1F
1\
#418000
0,
1+
0F
1E
1V
0\
#419000
1,
1F
1\
#420000
0,
0+
1*
0.
0/
0F
0E
1D
0B
0G
0X
0W
1h
0V
0\
0Y
0]
0i
0s
0z
1*!
0v
0m
0a
0e
1'!
1&!
1(!
1)!
#421000
1,
1F
1\
#422000
0,
1+
0F
1E
1V
0\
#423000
1,
1F
1\
#424000
0,
0+
0*
1)
0F
0E
0D
1C
1q
0h
0V
0\
#425000
1,
1.
1F
1B
1W
1\
#426000
0,
1+
0F
1E
1V
0\
#427000
1,
1F
1\
#428000
0,
0+
1*
0F
0E
1D
1h
0V
0\
#429000
1,
1F
1\
#430000
0,
1+
0.
0F
1E
0B
0W
1V
0\
#431000
1,
1F
1\
#432000
0,
0+
0*
0)
0F
0E
0D
0C
0q
0h
0V
0\
#433000
1,
1F
1\
#434000
0,
1+
0F
1E
1V
0\
#435000
1,
1.
1/
1F
1B
1G
1X
1W
1\
1Y
1]
1i
1s
1z
0*!
1v
1m
1a
1e
0'!
0&!
0(!
0)!
#436000
0,
0+
1*
0F
0E
1D
1h
0V
0\
#437000
1,
1F
1\
#438000
0,
1+
0F
1E
1V
0\
#439000
1,
1F
1\
#440000
0,
0+
0*
0.
1)
0F
0E
0D
1C
0B
0W
1q
0h
0V
0\
#441000
1,
1F
1\
#442000
0,
1+
0F
1E
1V
0\
#443000
1,
1F
1\
#444000
0,
0+
1*
0F
0E
1D
1h
0V
0\
#445000
1,
1.
1F
1B
1W
1\
#446000
0,
1+
0F
1E
1V
0\
#447000
1,
1F
1\
#448000
0,
0+
0*
0)
0F
0E
0D
0C
0q
0h
0V
0\
#449000
1,
1F
1\
#450000
0,
1+
0.
0/
0F
1E
0B
0G
0X
0W
1V
0\
0Y
0]
0i
0s
0z
1*!
0v
0m
0a
0e
1'!
1&!
1(!
1)!
#451000
1,
1F
1\
#452000
0,
0+
1*
0F
0E
1D
1h
0V
0\
#453000
1,
1F
1\
#454000
0,
1+
0F
1E
1V
0\
#455000
1,
1.
1F
1B
1W
1\
#456000
0,
0+
0*
1)
0F
0E
0D
1C
1q
0h
0V
0\
#457000
1,
1F
1\
#458000
0,
1+
0F
1E
1V
0\
#459000
1,
1F
1\
#460000
0,
0+
1*
0.
0F
0E
1D
0B
0W
1h
0V
0\
#461000
1,
1F
1\
#462000
0,
1+
0F
1E
1V
0\
#463000
1,
1F
1\
