simulation/qsim/CPU.msim.vcd
$comment
	File created using the following command:
		vcd file CPU.msim.vcd -direction
$end
$date
	Thu Oct 13 23:27:35 2022
$end
$version
	ModelSim Version 10.5b
$end
$timescale
	1ps
$end

$scope module cpu_vhd_vec_tst $end
$var wire 1 ! CLK_in $end
$var wire 1 " contador [7] $end
$var wire 1 # contador [6] $end
$var wire 1 $ contador [5] $end
$var wire 1 % contador [4] $end
$var wire 1 & contador [3] $end
$var wire 1 ' contador [2] $end
$var wire 1 ( contador [1] $end
$var wire 1 ) contador [0] $end
$var wire 1 * JUMP_UC $end
$var wire 1 + MasterCLEAR $end
$var wire 1 , MCLEAR $end
$var wire 1 - MEM [15] $end
$var wire 1 . MEM [14] $end
$var wire 1 / MEM [13] $end
$var wire 1 0 MEM [12] $end
$var wire 1 1 MEM [11] $end
$var wire 1 2 MEM [10] $end
$var wire 1 3 MEM [9] $end
$var wire 1 4 MEM [8] $end
$var wire 1 5 MEM [7] $end
$var wire 1 6 MEM [6] $end
$var wire 1 7 MEM [5] $end
$var wire 1 8 MEM [4] $end
$var wire 1 9 MEM [3] $end
$var wire 1 : MEM [2] $end
$var wire 1 ; MEM [1] $end
$var wire 1 < MEM [0] $end
$var wire 1 = ResetREG $end
$var wire 1 > RgIN [1] $end
$var wire 1 ? RgIN [0] $end
$var wire 1 @ RgTO [1] $end
$var wire 1 A RgTO [0] $end
$var wire 1 B ULA0 $end
$var wire 1 C ULA1 $end

$scope module i1 $end
$var wire 1 D gnd $end
$var wire 1 E vcc $end
$var wire 1 F unknown $end
$var wire 1 G devoe $end
$var wire 1 H devclrn $end
$var wire 1 I devpor $end
$var wire 1 J ww_devoe $end
$var wire 1 K ww_devclrn $end
$var wire 1 L ww_devpor $end
$var wire 1 M ww_MasterCLEAR $end
$var wire 1 N ww_MCLEAR $end
$var wire 1 O ww_CLK_in $end
$var wire 1 P ww_JUMP_UC $end
$var wire 1 Q ww_ResetREG $end
$var wire 1 R ww_ULA0 $end
$var wire 1 S ww_ULA1 $end
$var wire 1 T ww_contador [7] $end
$var wire 1 U ww_contador [6] $end
$var wire 1 V ww_contador [5] $end
$var wire 1 W ww_contador [4] $end
$var wire 1 X ww_contador [3] $end
$var wire 1 Y ww_contador [2] $end
$var wire 1 Z ww_contador [1] $end
$var wire 1 [ ww_contador [0] $end
$var wire 1 \ ww_MEM [15] $end
$var wire 1 ] ww_MEM [14] $end
$var wire 1 ^ ww_MEM [13] $end
$var wire 1 _ ww_MEM [12] $end
$var wire 1 ` ww_MEM [11] $end
$var wire 1 a ww_MEM [10] $end
$var wire 1 b ww_MEM [9] $end
$var wire 1 c ww_MEM [8] $end
$var wire 1 d ww_MEM [7] $end
$var wire 1 e ww_MEM [6] $end
$var wire 1 f ww_MEM [5] $end
$var wire 1 g ww_MEM [4] $end
$var wire 1 h ww_MEM [3] $end
$var wire 1 i ww_MEM [2] $end
$var wire 1 j ww_MEM [1] $end
$var wire 1 k ww_MEM [0] $end
$var wire 1 l ww_RgIN [1] $end
$var wire 1 m ww_RgIN [0] $end
$var wire 1 n ww_RgTO [1] $end
$var wire 1 o ww_RgTO [0] $end
$var wire 1 p \inst21|inst|altsyncram_component|auto_generated|ram_block1a0_PORTAADDR_bus\ [7] $end
$var wire 1 q \inst21|inst|altsyncram_component|auto_generated|ram_block1a0_PORTAADDR_bus\ [6] $end
$var wire 1 r \inst21|inst|altsyncram_component|auto_generated|ram_block1a0_PORTAADDR_bus\ [5] $end
$var wire 1 s \inst21|inst|altsyncram_component|auto_generated|ram_block1a0_PORTAADDR_bus\ [4] $end
$var wire 1 t \inst21|inst|altsyncram_component|auto_generated|ram_block1a0_PORTAADDR_bus\ [3] $end
$var wire 1 u \inst21|inst|altsyncram_component|auto_generated|ram_block1a0_PORTAADDR_bus\ [2] $end
$var wire 1 v \inst21|inst|altsyncram_component|auto_generated|ram_block1a0_PORTAADDR_bus\ [1] $end
$var wire 1 w \inst21|inst|altsyncram_component|auto_generated|ram_block1a0_PORTAADDR_bus\ [0] $end
$var wire 1 x \inst21|inst|altsyncram_component|auto_generated|ram_block1a0_PORTADATAOUT_bus\ [17] $end
$var wire 1 y \inst21|inst|altsyncram_component|auto_generated|ram_block1a0_PORTADATAOUT_bus\ [16] $end
$var wire 1 z \inst21|inst|altsyncram_component|auto_generated|ram_block1a0_PORTADATAOUT_bus\ [15] $end
$var wire 1 { \inst21|inst|altsyncram_component|auto_generated|ram_block1a0_PORTADATAOUT_bus\ [14] $end
$var wire 1 | \inst21|inst|altsyncram_component|auto_generated|ram_block1a0_PORTADATAOUT_bus\ [13] $end
$var wire 1 } \inst21|inst|altsyncram_component|auto_generated|ram_block1a0_PORTADATAOUT_bus\ [12] $end
$var wire 1 ~ \inst21|inst|altsyncram_component|auto_generated|ram_block1a0_PORTADATAOUT_bus\ [11] $end
$var wire 1 !! \inst21|inst|altsyncram_component|auto_generated|ram_block1a0_PORTADATAOUT_bus\ [10] $end
$var wire 1 "! \inst21|inst|altsyncram_component|auto_generated|ram_block1a0_PORTADATAOUT_bus\ [9] $end
$var wire 1 #! \inst21|inst|altsyncram_component|auto_generated|ram_block1a0_PORTADATAOUT_bus\ [8] $end
$var wire 1 $! \inst21|inst|altsyncram_component|auto_generated|ram_block1a0_PORTADATAOUT_bus\ [7] $end
$var wire 1 %! \inst21|inst|altsyncram_component|auto_generated|ram_block1a0_PORTADATAOUT_bus\ [6] $end
$var wire 1 &! \inst21|inst|altsyncram_component|auto_generated|ram_block1a0_PORTADATAOUT_bus\ [5] $end
$var wire 1 '! \inst21|inst|altsyncram_component|auto_generated|ram_block1a0_PORTADATAOUT_bus\ [4] $end
$var wire 1 (! \inst21|inst|altsyncram_component|auto_generated|ram_block1a0_PORTADATAOUT_bus\ [3] $end
$var wire 1 )! \inst21|inst|altsyncram_component|auto_generated|ram_block1a0_PORTADATAOUT_bus\ [2] $end
$var wire 1 *! \inst21|inst|altsyncram_component|auto_generated|ram_block1a0_PORTADATAOUT_bus\ [1] $end
$var wire 1 +! \inst21|inst|altsyncram_component|auto_generated|ram_block1a0_PORTADATAOUT_bus\ [0] $end
$var wire 1 ,! \CLK_in~inputclkctrl_INCLK_bus\ [3] $end
$var wire 1 -! \CLK_in~inputclkctrl_INCLK_bus\ [2] $end
$var wire 1 .! \CLK_in~inputclkctrl_INCLK_bus\ [1] $end
$var wire 1 /! \CLK_in~inputclkctrl_INCLK_bus\ [0] $end
$var wire 1 0! \MasterCLEAR~output_o\ $end
$var wire 1 1! \JUMP_UC~output_o\ $end
$var wire 1 2! \ResetREG~output_o\ $end
$var wire 1 3! \ULA0~output_o\ $end
$var wire 1 4! \ULA1~output_o\ $end
$var wire 1 5! \contador[7]~output_o\ $end
$var wire 1 6! \contador[6]~output_o\ $end
$var wire 1 7! \contador[5]~output_o\ $end
$var wire 1 8! \contador[4]~output_o\ $end
$var wire 1 9! \contador[3]~output_o\ $end
$var wire 1 :! \contador[2]~output_o\ $end
$var wire 1 ;! \contador[1]~output_o\ $end
$var wire 1 <! \contador[0]~output_o\ $end
$var wire 1 =! \MEM[15]~output_o\ $end
$var wire 1 >! \MEM[14]~output_o\ $end
$var wire 1 ?! \MEM[13]~output_o\ $end
$var wire 1 @! \MEM[12]~output_o\ $end
$var wire 1 A! \MEM[11]~output_o\ $end
$var wire 1 B! \MEM[10]~output_o\ $end
$var wire 1 C! \MEM[9]~output_o\ $end
$var wire 1 D! \MEM[8]~output_o\ $end
$var wire 1 E! \MEM[7]~output_o\ $end
$var wire 1 F! \MEM[6]~output_o\ $end
$var wire 1 G! \MEM[5]~output_o\ $end
$var wire 1 H! \MEM[4]~output_o\ $end
$var wire 1 I! \MEM[3]~output_o\ $end
$var wire 1 J! \MEM[2]~output_o\ $end
$var wire 1 K! \MEM[1]~output_o\ $end
$var wire 1 L! \MEM[0]~output_o\ $end
$var wire 1 M! \RgIN[1]~output_o\ $end
$var wire 1 N! \RgIN[0]~output_o\ $end
$var wire 1 O! \RgTO[1]~output_o\ $end
$var wire 1 P! \RgTO[0]~output_o\ $end
$var wire 1 Q! \MCLEAR~input_o\ $end
$var wire 1 R! \CLK_in~input_o\ $end
$var wire 1 S! \CLK_in~inputclkctrl_outclk\ $end
$var wire 1 T! \inst|inst19~combout\ $end
$var wire 1 U! \inst|inst30~0_combout\ $end
$var wire 1 V! \inst|inst31~0_combout\ $end
$var wire 1 W! \inst|inst31~1_combout\ $end
$var wire 1 X! \inst|inst31~q\ $end
$var wire 1 Y! \inst|inst40~combout\ $end
$var wire 1 Z! \inst|inst32~0_combout\ $end
$var wire 1 [! \inst|inst32~q\ $end
$var wire 1 \! \inst|inst33~0_combout\ $end
$var wire 1 ]! \inst|inst33~q\ $end
$var wire 1 ^! \inst|inst53~combout\ $end
$var wire 1 _! \inst|inst30~q\ $end
$var wire 1 `! \inst|inst25~combout\ $end
$var wire 1 a! \inst|inst44~combout\ $end
$var wire 1 b! \inst|inst11~1_combout\ $end
$var wire 1 c! \inst|inst11~3_combout\ $end
$var wire 1 d! \inst|inst11~0_combout\ $end
$var wire 1 e! \inst|inst11~_emulated_q\ $end
$var wire 1 f! \inst|inst11~2_combout\ $end
$var wire 1 g! \inst|inst24~combout\ $end
$var wire 1 h! \inst|inst18~combout\ $end
$var wire 1 i! \inst|inst10~1_combout\ $end
$var wire 1 j! \inst|inst10~3_combout\ $end
$var wire 1 k! \inst|inst10~0_combout\ $end
$var wire 1 l! \inst|inst10~_emulated_q\ $end
$var wire 1 m! \inst|inst10~2_combout\ $end
$var wire 1 n! \inst|inst23~combout\ $end
$var wire 1 o! \inst|inst48~combout\ $end
$var wire 1 p! \inst|inst9~1_combout\ $end
$var wire 1 q! \inst|inst9~3_combout\ $end
$var wire 1 r! \inst|inst9~0_combout\ $end
$var wire 1 s! \inst|inst9~_emulated_q\ $end
$var wire 1 t! \inst|inst9~2_combout\ $end
$var wire 1 u! \inst|inst6~combout\ $end
$var wire 1 v! \inst|inst4~combout\ $end
$var wire 1 w! \inst|inst47~1_combout\ $end
$var wire 1 x! \inst|inst47~3_combout\ $end
$var wire 1 y! \inst|inst47~0_combout\ $end
$var wire 1 z! \inst|inst47~_emulated_q\ $end
$var wire 1 {! \inst|inst47~2_combout\ $end
$var wire 1 |! \inst23|inst3|inst4~combout\ $end
$var wire 1 }! \inst23|inst~0_combout\ $end
$var wire 1 ~! \inst23|inst1~0_combout\ $end
$var wire 1 !" \inst21|inst|altsyncram_component|auto_generated|q_a\ [15] $end
$var wire 1 "" \inst21|inst|altsyncram_component|auto_generated|q_a\ [14] $end
$var wire 1 #" \inst21|inst|altsyncram_component|auto_generated|q_a\ [13] $end
$var wire 1 $" \inst21|inst|altsyncram_component|auto_generated|q_a\ [12] $end
$var wire 1 %" \inst21|inst|altsyncram_component|auto_generated|q_a\ [11] $end
$var wire 1 &" \inst21|inst|altsyncram_component|auto_generated|q_a\ [10] $end
$var wire 1 '" \inst21|inst|altsyncram_component|auto_generated|q_a\ [9] $end
$var wire 1 (" \inst21|inst|altsyncram_component|auto_generated|q_a\ [8] $end
$var wire 1 )" \inst21|inst|altsyncram_component|auto_generated|q_a\ [7] $end
$var wire 1 *" \inst21|inst|altsyncram_component|auto_generated|q_a\ [6] $end
$var wire 1 +" \inst21|inst|altsyncram_component|auto_generated|q_a\ [5] $end
$var wire 1 ," \inst21|inst|altsyncram_component|auto_generated|q_a\ [4] $end
$var wire 1 -" \inst21|inst|altsyncram_component|auto_generated|q_a\ [3] $end
$var wire 1 ." \inst21|inst|altsyncram_component|auto_generated|q_a\ [2] $end
$var wire 1 /" \inst21|inst|altsyncram_component|auto_generated|q_a\ [1] $end
$var wire 1 0" \inst21|inst|altsyncram_component|auto_generated|q_a\ [0] $end
$var wire 1 1" \inst|ALT_INV_inst47~0_combout\ $end
$var wire 1 2" \inst|ALT_INV_inst9~0_combout\ $end
$var wire 1 3" \inst|ALT_INV_inst10~0_combout\ $end
$var wire 1 4" \inst|ALT_INV_inst11~0_combout\ $end
$var wire 1 5" \inst|ALT_INV_inst53~combout\ $end
$upscope $end
$upscope $end
$enddefinitions $end
#0
$dumpvars
0!
0*
1+
1,
1=
0B
0C
0D
1E
xF
1G
1H
1I
1J
1K
1L
1M
1N
0O
0P
1Q
0R
0S
10!
01!
12!
03!
04!
05!
06!
07!
08!
09!
0:!
0;!
0<!
0=!
0>!
0?!
0@!
0A!
0B!
0C!
0D!
0E!
0F!
0G!
0H!
0I!
0J!
0K!
0L!
0M!
0N!
0O!
0P!
1Q!
0R!
0S!
0T!
0U!
1V!
0W!
0X!
0Y!
0Z!
0[!
0\!
0]!
1^!
0_!
0`!
1a!
0b!
0c!
1d!
0e!
0f!
1g!
0h!
0i!
0j!
1k!
0l!
0m!
1n!
0o!
0p!
0q!
1r!
0s!
0t!
1u!
0v!
0w!
1x!
1y!
0z!
0{!
0|!
0}!
0~!
01"
02"
03"
04"
05"
0T
0U
0V
0W
0X
0Y
0Z
0[
0\
0]
0^
0_
0`
0a
0b
0c
0d
0e
0f
0g
0h
0i
0j
0k
0l
0m
0n
0o
0x
0y
0z
0{
0|
0}
0~
0!!
0"!
0#!
0$!
0%!
0&!
0'!
0(!
0)!
0*!
0+!
0!"
0""
0#"
0$"
0%"
0&"
0'"
0("
0)"
0*"
0+"
0,"
0-"
0."
0/"
00"
1,!
1-!
1.!
0/!
0"
0#
0$
0%
0&
0'
0(
0)
0-
0.
0/
00
01
02
03
04
05
06
07
08
09
0:
0;
0<
0>
0?
0@
0A
0p
0q
0r
0s
0t
0u
0v
0w
$end
#100
0,
0N
0Q!
0^!
0a!
0g!
0n!
0u!
15"
0y!
0r!
0k!
0d!
00!
02!
14"
13"
12"
11"
0M
0Q
0+
0=
#500
1!
1O
1R!
1/!
1S!
1z!
1{!
1w
1q!
0x!
1<!
1[
1)
#1000
0!
0O
0R!
1+!
1)!
1|
1{
0/!
10"
1."
1#"
1""
0S!
1>!
1P!
1?!
1M!
1J!
1L!
1]
1o
1^
1l
1i
1k
1<
1:
1/
1.
1A
1>
#1500
1!
1O
1R!
1/!
1S!
1s!
0z!
0{!
1t!
0w
1v
1x!
1;!
0<!
1Z
0[
0)
1(
#2000
0!
0O
0R!
0)!
1#!
1}
0|
0{
1z
0/!
0."
1("
1$"
0#"
0""
1!"
1}!
0S!
1=!
1O!
0>!
0P!
0?!
0M!
1@!
1N!
1D!
0J!
1\
1n
0]
0o
0^
0l
1_
1m
1c
0i
13!
0:
14
10
0/
0.
1-
0A
1@
1?
0>
1R
1B
#2500
1!
1O
1R!
1/!
1S!
1z!
1{!
1w
1T!
1j!
0q!
0x!
1<!
1[
1)
#3000
0!
0O
0R!
0+!
1*!
0#!
1"!
0}
1|
1{
0z
0/!
00"
1/"
0("
1'"
0$"
1#"
1""
0!"
1~!
0}!
0S!
0=!
0O!
1>!
1P!
1?!
1M!
0@!
0N!
1C!
0D!
1K!
0L!
0\
0n
1]
1o
1^
1l
0_
0m
1b
0c
1j
0k
03!
14!
0<
1;
04
13
00
1/
1.
0-
1A
0@
0?
1>
0R
1S
0B
1C
#3500
1!
1O
1R!
1/!
1S!
1l!
0s!
0z!
0{!
0t!
1m!
0w
0v
1u
1c!
0T!
1x!
0c!
1:!
0;!
0<!
1Y
0Z
0[
0)
0(
1'
#4000
0!
0O
0R!
0*!
1)!
1#!
0/!
0/"
1."
1("
1}!
0S!
1D!
1J!
0K!
1c
1i
0j
13!
0;
1:
14
1R
1B
#4500
1!
1O
1R!
1/!
1S!
1z!
1{!
1w
1q!
0x!
1<!
1[
1)
#5000
0!
0O
0R!
0)!
1(!
0#!
0"!
1!!
1~
0|
0{
0/!
0."
1-"
0("
0'"
1&"
1%"
0#"
0""
1|!
0~!
0}!
0S!
0>!
0P!
0?!
0M!
1A!
1B!
0C!
0D!
1I!
0J!
0]
0o
0^
0l
1`
1a
0b
0c
1h
0i
03!
04!
11!
0:
19
04
03
12
11
0/
0.
0A
0>
0R
0S
1P
0B
0C
1*
#5500
1!
1O
1R!
1/!
1^!
1`!
1g!
1n!
1u!
05"
1y!
0{!
1r!
1k!
0m!
1b!
1d!
1f!
1S!
04"
03"
02"
01"
0w
0u
1t
0j!
0q!
1x!
0l!
0z!
19!
0:!
0<!
1X
0Y
0[
0)
0'
1&
#6000
0!
0O
0R!
0(!
0~
0/!
0-"
0%"
0^!
0`!
0g!
0n!
0u!
0|!
15"
0y!
0r!
0k!
0d!
0S!
14"
13"
12"
11"
0A!
0I!
0`
0h
01!
09
01
0P
0*
#6500
1!
1O
1R!
1/!
1S!
1z!
1{!
1w
1q!
0x!
1<!
1[
1)
#7000
0!
0O
0R!
0/!
0S!
#7500
1!
1O
1R!
1/!
1S!
1s!
0z!
0{!
1t!
0w
1v
1x!
1;!
0<!
1Z
0[
0)
1(
#8000
0!
0O
0R!
1+!
0!!
1|
1{
0/!
10"
0&"
1#"
1""
0S!
1>!
1P!
1?!
1M!
0B!
1L!
1]
1o
1^
1l
0a
1k
1<
02
1/
1.
1A
1>
#8500
1!
1O
1R!
1/!
1S!
1z!
1{!
1w
1T!
1j!
0q!
0x!
1<!
1[
1)
#9000
0!
0O
0R!
1}
0|
0{
1z
0/!
1$"
0#"
0""
1!"
0S!
1=!
1O!
0>!
0P!
0?!
0M!
1@!
1N!
1\
1n
0]
0o
0^
0l
1_
1m
10
0/
0.
1-
0A
1@
1?
0>
#9500
1!
1O
1R!
1/!
1S!
1l!
0s!
0z!
0{!
0t!
1m!
0w
0v
1u
1U!
1c!
0T!
1x!
0U!
0c!
1:!
0;!
0<!
1Y
0Z
0[
0)
0(
1'
#10000
0!
0O
0R!
0+!
1*!
0/!
00"
1/"
0S!
1K!
0L!
1j
0k
0<
1;
#10500
1!
1O
1R!
1/!
1S!
1z!
1{!
1w
1q!
0x!
1<!
1[
1)
#11000
0!
0O
0R!
1#!
1"!
0}
1|
1{
0z
0/!
1("
1'"
0$"
1#"
1""
0!"
1~!
1}!
0S!
0=!
0O!
1>!
1P!
1?!
1M!
0@!
0N!
1C!
1D!
0\
0n
1]
1o
1^
1l
0_
0m
1b
1c
13!
14!
14
13
00
1/
1.
0-
1A
0@
0?
1>
1R
1S
1B
1C
#11500
1!
1O
1R!
1/!
1S!
1s!
0z!
0{!
1t!
0w
1v
1x!
1;!
0<!
1Z
0[
0)
1(
#12000
0!
0O
0R!
0"!
0/!
0'"
0~!
0S!
0C!
0b
04!
03
0S
0C
#12500
1!
1O
1R!
1/!
1S!
1z!
1{!
1w
1T!
0j!
0q!
0x!
1U!
1c!
1<!
1[
1)
#13000
0!
0O
0R!
1"!
1}
0|
0{
1z
0/!
1'"
1$"
0#"
0""
1!"
1~!
0S!
1=!
1O!
0>!
0P!
0?!
0M!
1@!
1N!
1C!
1\
1n
0]
0o
0^
0l
1_
1m
1b
14!
13
10
0/
0.
1-
0A
1@
1?
0>
1S
1C
#13500
1!
1O
1R!
1/!
1S!
1_!
1e!
0l!
0s!
0z!
1s
0{!
0t!
0m!
0f!
0U!
0V!
1Y!
0w
0v
0u
0t
1U!
1V!
0Y!
0T!
1x!
18!
1W
09!
0:!
0;!
0<!
1%
0X
0Y
0Z
0[
0)
0(
0'
0&
#14000
0!
0O
0R!
0*!
0#!
0}
1|
1{
0z
0/!
0/"
0("
0$"
1#"
1""
0!"
0}!
0S!
0=!
0O!
1>!
1P!
1?!
1M!
0@!
0N!
0D!
0K!
0\
0n
1]
1o
1^
1l
0_
0m
0c
0j
03!
0;
04
00
1/
1.
0-
1A
0@
0?
1>
0R
0B
#14500
1!
1O
1R!
1/!
1S!
1z!
1{!
1w
1q!
0x!
1<!
1[
1)
#15000
0!
0O
0R!
1+!
0"!
0/!
10"
0'"
0~!
0S!
0C!
1L!
0b
1k
04!
1<
03
0S
0C
#15500
1!
1O
1R!
1/!
1S!
1s!
0z!
0{!
1t!
0w
1v
1x!
1;!
0<!
1Z
0[
0)
1(
#16000
0!
0O
0R!
0+!
1~
0|
0{
0/!
00"
1%"
0#"
0""
0S!
0>!
0P!
0?!
0M!
1A!
0L!
0]
0o
0^
0l
1`
0k
0<
11
0/
0.
0A
0>
#16500
1!
1O
1R!
1/!
1S!
1z!
1{!
1w
1T!
1j!
0q!
0x!
1<!
1[
1)
#17000
0!
0O
0R!
0~
0/!
0%"
0S!
0A!
0`
01
#17500
1!
1O
1R!
1/!
1S!
1l!
0s!
0z!
0{!
0t!
1m!
0w
0v
1u
0V!
0c!
0T!
1x!
1c!
1:!
0;!
0<!
1Y
0Z
0[
0)
0(
1'
#18000
0!
0O
0R!
0/!
0S!
#18500
1!
1O
1R!
1/!
1S!
1z!
1{!
1w
1q!
0x!
1<!
1[
1)
#19000
0!
0O
0R!
0/!
0S!
#19500
1!
1O
1R!
1/!
1S!
1s!
0z!
0{!
1t!
0w
1v
1x!
1;!
0<!
1Z
0[
0)
1(
#20000
0!
0O
0R!
0/!
0S!
#20500
1!
1O
1R!
1/!
1S!
1z!
1{!
1w
1T!
0j!
0q!
0x!
0c!
1<!
1[
1)
#21000
0!
0O
0R!
0/!
0S!
#21500
1!
1O
1R!
1/!
1S!
0e!
0l!
0s!
0z!
0{!
0t!
0m!
1f!
0w
0v
0u
1t
1W!
1V!
0T!
1x!
0W!
19!
0:!
0;!
0<!
1X
0Y
0Z
0[
0)
0(
0'
1&
#22000
0!
0O
0R!
0/!
0S!
#22500
1!
1O
1R!
1/!
1S!
1z!
1{!
1w
1q!
0x!
1<!
1[
1)
#23000
0!
0O
0R!
0/!
0S!
#23500
1!
1O
1R!
1/!
1S!
1s!
0z!
0{!
1t!
0w
1v
1x!
1;!
0<!
1Z
0[
0)
1(
#24000
0!
0O
0R!
0/!
0S!
#24500
1!
1O
1R!
1/!
1S!
1z!
1{!
1w
1T!
1j!
0q!
0x!
1<!
1[
1)
#25000
0!
0O
0R!
0/!
0S!
#25500
1!
1O
1R!
1/!
1S!
1l!
0s!
0z!
0{!
0t!
1m!
0w
0v
1u
0U!
0V!
1Y!
1c!
0T!
1x!
1U!
0Y!
0c!
1:!
0;!
0<!
1Y
0Z
0[
0)
0(
1'
#26000
0!
0O
0R!
0/!
0S!
#26500
1!
1O
1R!
1/!
1S!
1z!
1{!
1w
1q!
0x!
1<!
1[
1)
#27000
0!
0O
0R!
0/!
0S!
#27500
1!
1O
1R!
1/!
1S!
1s!
0z!
0{!
1t!
0w
1v
1x!
1;!
0<!
1Z
0[
0)
1(
#28000
0!
0O
0R!
0/!
0S!
#28500
1!
1O
1R!
1/!
1S!
1z!
1{!
1w
1T!
0j!
0q!
0x!
0U!
1W!
1Y!
1c!
1<!
1[
1)
#29000
0!
0O
0R!
0/!
0S!
#29500
1!
1O
1R!
1/!
1S!
1X!
0_!
1e!
0l!
0s!
0z!
0s
1r
0{!
0t!
0m!
0f!
1U!
1V!
0Y!
0W!
1Z!
0w
0v
0u
0t
0Z!
1W!
0U!
0T!
1x!
08!
17!
0W
1V
09!
0:!
0;!
0<!
0%
1$
0X
0Y
0Z
0[
0)
0(
0'
0&
#30000
0!
0O
0R!
0/!
0S!
#30500
1!
1O
1R!
1/!
1S!
1z!
1{!
1w
1q!
0x!
1<!
1[
1)
#31000
0!
0O
0R!
0/!
0S!
#31500
1!
1O
1R!
1/!
1S!
1s!
0z!
0{!
1t!
0w
1v
1x!
1;!
0<!
1Z
0[
0)
1(
#32000
0!
0O
0R!
0/!
0S!
#32500
1!
1O
1R!
1/!
1S!
1z!
1{!
1w
1T!
1j!
0q!
0x!
1<!
1[
1)
#33000
0!
0O
0R!
0/!
0S!
#33500
1!
1O
1R!
1/!
1S!
1l!
0s!
0z!
0{!
0t!
1m!
0w
0v
1u
0c!
0T!
1x!
1c!
1:!
0;!
0<!
1Y
0Z
0[
0)
0(
1'
#34000
0!
0O
0R!
0/!
0S!
#34500
1!
1O
1R!
1/!
1S!
1z!
1{!
1w
1q!
0x!
1<!
1[
1)
#35000
0!
0O
0R!
0/!
0S!
#35500
1!
1O
1R!
1/!
1S!
1s!
0z!
0{!
1t!
0w
1v
1x!
1;!
0<!
1Z
0[
0)
1(
#36000
0!
0O
0R!
0/!
0S!
#36500
1!
1O
1R!
1/!
1S!
1z!
1{!
1w
1T!
0j!
0q!
0x!
0c!
1<!
1[
1)
#37000
0!
0O
0R!
0/!
0S!
#37500
1!
1O
1R!
1/!
1S!
0e!
0l!
0s!
0z!
0{!
0t!
0m!
1f!
0w
0v
0u
1t
0T!
1x!
19!
0:!
0;!
0<!
1X
0Y
0Z
0[
0)
0(
0'
1&
#38000
0!
0O
0R!
0/!
0S!
#38500
1!
1O
1R!
1/!
1S!
1z!
1{!
1w
1q!
0x!
1<!
1[
1)
#39000
0!
0O
0R!
0/!
0S!
#39500
1!
1O
1R!
1/!
1S!
1s!
0z!
0{!
1t!
0w
1v
1x!
1;!
0<!
1Z
0[
0)
1(
#40000
0!
0O
0R!
0/!
0S!
#40500
1!
1O
1R!
1/!
1S!
1z!
1{!
1w
1T!
1j!
0q!
0x!
1<!
1[
1)
#41000
0!
0O
0R!
0/!
0S!
#41500
1!
1O
1R!
1/!
1S!
1l!
0s!
0z!
0{!
0t!
1m!
0w
0v
1u
1U!
1c!
0T!
1x!
0U!
0c!
1:!
0;!
0<!
1Y
0Z
0[
0)
0(
1'
#42000
0!
0O
0R!
0/!
0S!
#42500
1!
1O
1R!
1/!
1S!
1z!
1{!
1w
1q!
0x!
1<!
1[
1)
#43000
0!
0O
0R!
0/!
0S!
#43500
1!
1O
1R!
1/!
1S!
1s!
0z!
0{!
1t!
0w
1v
1x!
1;!
0<!
1Z
0[
0)
1(
#44000
0!
0O
0R!
0/!
0S!
#44500
1!
1O
1R!
1/!
1S!
1z!
1{!
1w
1T!
0j!
0q!
0x!
1U!
1c!
1<!
1[
1)
#45000
0!
0O
0R!
0/!
0S!
#45500
1!
1O
1R!
1/!
1S!
1_!
1e!
0l!
0s!
0z!
1s
0{!
0t!
0m!
0f!
0U!
0V!
1Y!
0w
0v
0u
0t
1Z!
1U!
1V!
0Y!
0T!
1x!
18!
0Z!
1W
09!
0:!
0;!
0<!
1%
0X
0Y
0Z
0[
0)
0(
0'
0&
#46000
0!
0O
0R!
0/!
0S!
#46500
1!
1O
1R!
1/!
1S!
1z!
1{!
1w
1q!
0x!
1<!
1[
1)
#47000
0!
0O
0R!
0/!
0S!
#47500
1!
1O
1R!
1/!
1S!
1s!
0z!
0{!
1t!
0w
1v
1x!
1;!
0<!
1Z
0[
0)
1(
#48000
0!
0O
0R!
0/!
0S!
#48500
1!
1O
1R!
1/!
1S!
1z!
1{!
1w
1T!
1j!
0q!
0x!
1<!
1[
1)
#49000
0!
0O
0R!
0/!
0S!
#49500
1!
1O
1R!
1/!
1S!
1l!
0s!
0z!
0{!
0t!
1m!
0w
0v
1u
0V!
0c!
0T!
1x!
1c!
1:!
0;!
0<!
1Y
0Z
0[
0)
0(
1'
#50000
0!
0O
0R!
0/!
0S!
#50500
1!
1O
1R!
1/!
1S!
1z!
1{!
1w
1q!
0x!
1<!
1[
1)
#51000
0!
0O
0R!
0/!
0S!
#51500
1!
1O
1R!
1/!
1S!
1s!
0z!
0{!
1t!
0w
1v
1x!
1;!
0<!
1Z
0[
0)
1(
#52000
0!
0O
0R!
0/!
0S!
#52500
1!
1O
1R!
1/!
1S!
1z!
1{!
1w
1T!
0j!
0q!
0x!
0c!
1<!
1[
1)
#53000
0!
0O
0R!
0/!
0S!
#53500
1!
1O
1R!
1/!
1S!
0e!
0l!
0s!
0z!
0{!
0t!
0m!
1f!
0w
0v
0u
1t
0W!
1V!
0T!
1x!
1W!
19!
0:!
0;!
0<!
1X
0Y
0Z
0[
0)
0(
0'
1&
#54000
0!
0O
0R!
0/!
0S!
#54500
1!
1O
1R!
1/!
1S!
1z!
1{!
1w
1q!
0x!
1<!
1[
1)
#55000
0!
0O
0R!
0/!
0S!
#55500
1!
1O
1R!
1/!
1S!
1s!
0z!
0{!
1t!
0w
1v
1x!
1;!
0<!
1Z
0[
0)
1(
#56000
0!
0O
0R!
0/!
0S!
#56500
1!
1O
1R!
1/!
1S!
1z!
1{!
1w
1T!
1j!
0q!
0x!
1<!
1[
1)
#57000
0!
0O
0R!
0/!
0S!
#57500
1!
1O
1R!
1/!
1S!
1l!
0s!
0z!
0{!
0t!
1m!
0w
0v
1u
0U!
0V!
1Y!
1c!
0T!
1x!
1U!
0Y!
0c!
1Z!
1:!
0;!
0<!
0Z!
1Y
0Z
0[
0)
0(
1'
#58000
0!
0O
0R!
0/!
0S!
#58500
1!
1O
1R!
1/!
1S!
1z!
1{!
1w
1q!
0x!
1<!
1[
1)
#59000
0!
0O
0R!
0/!
0S!
#59500
1!
1O
1R!
1/!
1S!
1s!
0z!
0{!
1t!
0w
1v
1x!
1;!
0<!
1Z
0[
0)
1(
#60000
0!
0O
0R!
0/!
0S!
#60500
1!
1O
1R!
1/!
1S!
1z!
1{!
1w
1T!
0j!
0q!
0x!
0U!
0W!
1Y!
1c!
1<!
1Z!
1[
1)
#61000
0!
0O
0R!
0/!
0S!
#61500
1!
1O
1R!
1/!
1S!
0X!
1[!
0_!
1e!
0l!
0s!
0z!
0s
0r
1q
0{!
0t!
0m!
0f!
1U!
1V!
0Y!
1W!
0w
0v
0u
0t
0W!
0U!
0T!
1x!
08!
16!
07!
0W
1U
0V
09!
0:!
0;!
0<!
0%
0$
1#
0X
0Y
0Z
0[
0)
0(
0'
0&
#62000
0!
0O
0R!
0/!
0S!
#62500
1!
1O
1R!
1/!
1S!
1z!
1{!
1w
1q!
0x!
1<!
1[
1)
#63000
0!
0O
0R!
0/!
0S!
